==39753== Memcheck, a memory error detector
==39753== Copyright (C) 2002-2017, and GNU GPL'd, by Julian Seward et al.
==39753== Using Valgrind-3.14.0.GIT and LibVEX; rerun with -h for copyright info
==39753== Command: ./a.out
==39753== Parent PID: 39003
==39753== 
==39753== Conditional jump or move depends on uninitialised value(s)
==39753==    at 0x1000A1330: dyld::_main(macho_header const*, unsigned long, int, char const**, char const**, char const**, unsigned long*) (in /usr/lib/dyld)
==39753==    by 0x10009C502: dyldbootstrap::start(macho_header const*, int, char const**, long, macho_header const*, unsigned long*) (in /usr/lib/dyld)
==39753==    by 0x10009C035: _dyld_start (in /usr/lib/dyld)
==39753== 
==39753== Conditional jump or move depends on uninitialised value(s)
==39753==    at 0x1000A3456: dyld::checkEnvironmentVariables(char const**) (in /usr/lib/dyld)
==39753==    by 0x1000A1339: dyld::_main(macho_header const*, unsigned long, int, char const**, char const**, char const**, unsigned long*) (in /usr/lib/dyld)
==39753==    by 0x10009C502: dyldbootstrap::start(macho_header const*, int, char const**, long, macho_header const*, unsigned long*) (in /usr/lib/dyld)
==39753==    by 0x10009C035: _dyld_start (in /usr/lib/dyld)
==39753== 
==39753== Conditional jump or move depends on uninitialised value(s)
==39753==    at 0x10009DBBC: dyld::processDyldEnvironmentVariable(char const*, char const*, char const*) (in /usr/lib/dyld)
==39753==    by 0x1000A3566: dyld::checkEnvironmentVariables(char const**) (in /usr/lib/dyld)
==39753==    by 0x1000A1339: dyld::_main(macho_header const*, unsigned long, int, char const**, char const**, char const**, unsigned long*) (in /usr/lib/dyld)
==39753==    by 0x10009C502: dyldbootstrap::start(macho_header const*, int, char const**, long, macho_header const*, unsigned long*) (in /usr/lib/dyld)
==39753==    by 0x10009C035: _dyld_start (in /usr/lib/dyld)
==39753== 
==39753== Conditional jump or move depends on uninitialised value(s)
==39753==    at 0x1000A1341: dyld::_main(macho_header const*, unsigned long, int, char const**, char const**, char const**, unsigned long*) (in /usr/lib/dyld)
==39753==    by 0x10009C502: dyldbootstrap::start(macho_header const*, int, char const**, long, macho_header const*, unsigned long*) (in /usr/lib/dyld)
==39753==    by 0x10009C035: _dyld_start (in /usr/lib/dyld)
==39753== 
==39753== Conditional jump or move depends on uninitialised value(s)
==39753==    at 0x1000A539D: dyld::loadPhase3(char const*, char const*, dyld::LoadContext const&, unsigned int&, std::__1::vector<char const*, std::__1::allocator<char const*> >*) (in /usr/lib/dyld)
==39753==    by 0x1000A4D17: dyld::loadPhase1(char const*, char const*, dyld::LoadContext const&, unsigned int&, std::__1::vector<char const*, std::__1::allocator<char const*> >*) (in /usr/lib/dyld)
==39753==    by 0x10009EAC9: dyld::loadPhase0(char const*, char const*, dyld::LoadContext const&, unsigned int&, std::__1::vector<char const*, std::__1::allocator<char const*> >*) (in /usr/lib/dyld)
==39753==    by 0x10009E61D: dyld::load(char const*, dyld::LoadContext const&, unsigned int&) (in /usr/lib/dyld)
==39753==    by 0x1000A23A0: dyld::_main(macho_header const*, unsigned long, int, char const**, char const**, char const**, unsigned long*) (in /usr/lib/dyld)
==39753==    by 0x10009C502: dyldbootstrap::start(macho_header const*, int, char const**, long, macho_header const*, unsigned long*) (in /usr/lib/dyld)
==39753==    by 0x10009C035: _dyld_start (in /usr/lib/dyld)
==39753== 
==39753== Conditional jump or move depends on uninitialised value(s)
==39753==    at 0x1000A539D: dyld::loadPhase3(char const*, char const*, dyld::LoadContext const&, unsigned int&, std::__1::vector<char const*, std::__1::allocator<char const*> >*) (in /usr/lib/dyld)
==39753==    by 0x1000A4D17: dyld::loadPhase1(char const*, char const*, dyld::LoadContext const&, unsigned int&, std::__1::vector<char const*, std::__1::allocator<char const*> >*) (in /usr/lib/dyld)
==39753==    by 0x10009EAC9: dyld::loadPhase0(char const*, char const*, dyld::LoadContext const&, unsigned int&, std::__1::vector<char const*, std::__1::allocator<char const*> >*) (in /usr/lib/dyld)
==39753==    by 0x10009E658: dyld::load(char const*, dyld::LoadContext const&, unsigned int&) (in /usr/lib/dyld)
==39753==    by 0x1000A23A0: dyld::_main(macho_header const*, unsigned long, int, char const**, char const**, char const**, unsigned long*) (in /usr/lib/dyld)
==39753==    by 0x10009C502: dyldbootstrap::start(macho_header const*, int, char const**, long, macho_header const*, unsigned long*) (in /usr/lib/dyld)
==39753==    by 0x10009C035: _dyld_start (in /usr/lib/dyld)
==39753== 
--39753-- UNKNOWN fcntl 98!
--39753-- UNKNOWN fcntl 98! (repeated 2 times)
--39753-- UNKNOWN fcntl 98! (repeated 4 times)
--39753-- UNKNOWN fcntl 98! (repeated 8 times)
--39753-- UNKNOWN fcntl 98! (repeated 16 times)
--39753-- UNKNOWN fcntl 98! (repeated 32 times)
==39753== Conditional jump or move depends on uninitialised value(s)
==39753==    at 0x1002C2726: ccaes_vng_ctr_crypt (in /usr/lib/system/libcorecrypto.dylib)
==39753==    by 0x1002C263B: bcc_update (in /usr/lib/system/libcorecrypto.dylib)
==39753==    by 0x1002C387C: df_bcc_update (in /usr/lib/system/libcorecrypto.dylib)
==39753==    by 0x1002C3654: df (in /usr/lib/system/libcorecrypto.dylib)
==39753==    by 0x1002C1FD4: nistctr_init (in /usr/lib/system/libcorecrypto.dylib)
==39753==    by 0x1002C1E2B: init (in /usr/lib/system/libcorecrypto.dylib)
==39753==    by 0x10048CCFE: arc4_init (in /usr/lib/system/libsystem_c.dylib)
==39753==    by 0x10048CE1C: arc4random_buf (in /usr/lib/system/libsystem_c.dylib)
==39753==    by 0x100773A24: _read_images (in /usr/lib/libobjc.A.dylib)
==39753==    by 0x100772A4F: _hasObjcContents (in /usr/lib/libobjc.A.dylib)
==39753==    by 0x10078555F: __objc_personality_v0 (in /usr/lib/libobjc.A.dylib)
==39753==    by 0x1000A047A: dyld::notifyBatchPartial(dyld_image_states, bool, char const* (*)(dyld_image_states, unsigned int, dyld_image_info const*), bool, bool) (in /usr/lib/dyld)
==39753== 
==39753== Conditional jump or move depends on uninitialised value(s)
==39753==    at 0x1002C2726: ccaes_vng_ctr_crypt (in /usr/lib/system/libcorecrypto.dylib)
==39753==    by 0x1002C263B: bcc_update (in /usr/lib/system/libcorecrypto.dylib)
==39753==    by 0x1002C390C: df_bcc_update (in /usr/lib/system/libcorecrypto.dylib)
==39753==    by 0x1002C3654: df (in /usr/lib/system/libcorecrypto.dylib)
==39753==    by 0x1002C1FD4: nistctr_init (in /usr/lib/system/libcorecrypto.dylib)
==39753==    by 0x1002C1E2B: init (in /usr/lib/system/libcorecrypto.dylib)
==39753==    by 0x10048CCFE: arc4_init (in /usr/lib/system/libsystem_c.dylib)
==39753==    by 0x10048CE1C: arc4random_buf (in /usr/lib/system/libsystem_c.dylib)
==39753==    by 0x100773A24: _read_images (in /usr/lib/libobjc.A.dylib)
==39753==    by 0x100772A4F: _hasObjcContents (in /usr/lib/libobjc.A.dylib)
==39753==    by 0x10078555F: __objc_personality_v0 (in /usr/lib/libobjc.A.dylib)
==39753==    by 0x1000A047A: dyld::notifyBatchPartial(dyld_image_states, bool, char const* (*)(dyld_image_states, unsigned int, dyld_image_info const*), bool, bool) (in /usr/lib/dyld)
==39753== 
==39753== Conditional jump or move depends on uninitialised value(s)
==39753==    at 0x1002C2726: ccaes_vng_ctr_crypt (in /usr/lib/system/libcorecrypto.dylib)
==39753==    by 0x1002C263B: bcc_update (in /usr/lib/system/libcorecrypto.dylib)
==39753==    by 0x1002C36B6: df (in /usr/lib/system/libcorecrypto.dylib)
==39753==    by 0x1002C1FD4: nistctr_init (in /usr/lib/system/libcorecrypto.dylib)
==39753==    by 0x1002C1E2B: init (in /usr/lib/system/libcorecrypto.dylib)
==39753==    by 0x10048CCFE: arc4_init (in /usr/lib/system/libsystem_c.dylib)
==39753==    by 0x10048CE1C: arc4random_buf (in /usr/lib/system/libsystem_c.dylib)
==39753==    by 0x100773A24: _read_images (in /usr/lib/libobjc.A.dylib)
==39753==    by 0x100772A4F: _hasObjcContents (in /usr/lib/libobjc.A.dylib)
==39753==    by 0x10078555F: __objc_personality_v0 (in /usr/lib/libobjc.A.dylib)
==39753==    by 0x1000A047A: dyld::notifyBatchPartial(dyld_image_states, bool, char const* (*)(dyld_image_states, unsigned int, dyld_image_info const*), bool, bool) (in /usr/lib/dyld)
==39753==    by 0x1000A062D: dyld::registerObjCNotifiers(void (*)(unsigned int, char const* const*, mach_header const* const*), void (*)(char const*, mach_header const*), void (*)(char const*, mach_header const*)) (in /usr/lib/dyld)
==39753== 
==39753== Conditional jump or move depends on uninitialised value(s)
==39753==    at 0x1002C2726: ccaes_vng_ctr_crypt (in /usr/lib/system/libcorecrypto.dylib)
==39753==    by 0x1002C376B: df (in /usr/lib/system/libcorecrypto.dylib)
==39753==    by 0x1002C1FD4: nistctr_init (in /usr/lib/system/libcorecrypto.dylib)
==39753==    by 0x1002C1E2B: init (in /usr/lib/system/libcorecrypto.dylib)
==39753==    by 0x10048CCFE: arc4_init (in /usr/lib/system/libsystem_c.dylib)
==39753==    by 0x10048CE1C: arc4random_buf (in /usr/lib/system/libsystem_c.dylib)
==39753==    by 0x100773A24: _read_images (in /usr/lib/libobjc.A.dylib)
==39753==    by 0x100772A4F: _hasObjcContents (in /usr/lib/libobjc.A.dylib)
==39753==    by 0x10078555F: __objc_personality_v0 (in /usr/lib/libobjc.A.dylib)
==39753==    by 0x1000A047A: dyld::notifyBatchPartial(dyld_image_states, bool, char const* (*)(dyld_image_states, unsigned int, dyld_image_info const*), bool, bool) (in /usr/lib/dyld)
==39753==    by 0x1000A062D: dyld::registerObjCNotifiers(void (*)(unsigned int, char const* const*, mach_header const* const*), void (*)(char const*, mach_header const*), void (*)(char const*, mach_header const*)) (in /usr/lib/dyld)
==39753==    by 0x1003CDA26: _dyld_objc_notify_register (in /usr/lib/system/libdyld.dylib)
==39753== 
==39753== Conditional jump or move depends on uninitialised value(s)
==39753==    at 0x1002C3A4E: drbg_update (in /usr/lib/system/libcorecrypto.dylib)
==39753==    by 0x1002C204C: nistctr_init (in /usr/lib/system/libcorecrypto.dylib)
==39753==    by 0x1002C1E2B: init (in /usr/lib/system/libcorecrypto.dylib)
==39753==    by 0x10048CCFE: arc4_init (in /usr/lib/system/libsystem_c.dylib)
==39753==    by 0x10048CE1C: arc4random_buf (in /usr/lib/system/libsystem_c.dylib)
==39753==    by 0x100773A24: _read_images (in /usr/lib/libobjc.A.dylib)
==39753==    by 0x100772A4F: _hasObjcContents (in /usr/lib/libobjc.A.dylib)
==39753==    by 0x10078555F: __objc_personality_v0 (in /usr/lib/libobjc.A.dylib)
==39753==    by 0x1000A047A: dyld::notifyBatchPartial(dyld_image_states, bool, char const* (*)(dyld_image_states, unsigned int, dyld_image_info const*), bool, bool) (in /usr/lib/dyld)
==39753==    by 0x1000A062D: dyld::registerObjCNotifiers(void (*)(unsigned int, char const* const*, mach_header const* const*), void (*)(char const*, mach_header const*), void (*)(char const*, mach_header const*)) (in /usr/lib/dyld)
==39753==    by 0x1003CDA26: _dyld_objc_notify_register (in /usr/lib/system/libdyld.dylib)
==39753==    by 0x100772233: environ_init (in /usr/lib/libobjc.A.dylib)
==39753== 
==39753== Conditional jump or move depends on uninitialised value(s)
==39753==    at 0x1002C2726: ccaes_vng_ctr_crypt (in /usr/lib/system/libcorecrypto.dylib)
==39753==    by 0x1002C3C6E: generate (in /usr/lib/system/libcorecrypto.dylib)
==39753==    by 0x10048CE87: arc4random_buf (in /usr/lib/system/libsystem_c.dylib)
==39753==    by 0x100773A24: _read_images (in /usr/lib/libobjc.A.dylib)
==39753==    by 0x100772A4F: _hasObjcContents (in /usr/lib/libobjc.A.dylib)
==39753==    by 0x10078555F: __objc_personality_v0 (in /usr/lib/libobjc.A.dylib)
==39753==    by 0x1000A047A: dyld::notifyBatchPartial(dyld_image_states, bool, char const* (*)(dyld_image_states, unsigned int, dyld_image_info const*), bool, bool) (in /usr/lib/dyld)
==39753==    by 0x1000A062D: dyld::registerObjCNotifiers(void (*)(unsigned int, char const* const*, mach_header const* const*), void (*)(char const*, mach_header const*), void (*)(char const*, mach_header const*)) (in /usr/lib/dyld)
==39753==    by 0x1003CDA26: _dyld_objc_notify_register (in /usr/lib/system/libdyld.dylib)
==39753==    by 0x100772233: environ_init (in /usr/lib/libobjc.A.dylib)
==39753==    by 0x100364E35: _os_object_init (in /usr/lib/system/libdispatch.dylib)
==39753==    by 0x100370AD1: libdispatch_init (in /usr/lib/system/libdispatch.dylib)
==39753== 
==39753== Conditional jump or move depends on uninitialised value(s)
==39753==    at 0x1002C2726: ccaes_vng_ctr_crypt (in /usr/lib/system/libcorecrypto.dylib)
==39753==    by 0x1002C39D1: drbg_update (in /usr/lib/system/libcorecrypto.dylib)
==39753==    by 0x1002C3CB9: generate (in /usr/lib/system/libcorecrypto.dylib)
==39753==    by 0x10048CE87: arc4random_buf (in /usr/lib/system/libsystem_c.dylib)
==39753==    by 0x100773A24: _read_images (in /usr/lib/libobjc.A.dylib)
==39753==    by 0x100772A4F: _hasObjcContents (in /usr/lib/libobjc.A.dylib)
==39753==    by 0x10078555F: __objc_personality_v0 (in /usr/lib/libobjc.A.dylib)
==39753==    by 0x1000A047A: dyld::notifyBatchPartial(dyld_image_states, bool, char const* (*)(dyld_image_states, unsigned int, dyld_image_info const*), bool, bool) (in /usr/lib/dyld)
==39753==    by 0x1000A062D: dyld::registerObjCNotifiers(void (*)(unsigned int, char const* const*, mach_header const* const*), void (*)(char const*, mach_header const*), void (*)(char const*, mach_header const*)) (in /usr/lib/dyld)
==39753==    by 0x1003CDA26: _dyld_objc_notify_register (in /usr/lib/system/libdyld.dylib)
==39753==    by 0x100772233: environ_init (in /usr/lib/libobjc.A.dylib)
==39753==    by 0x100364E35: _os_object_init (in /usr/lib/system/libdispatch.dylib)
==39753== 
==39753== Conditional jump or move depends on uninitialised value(s)
==39753==    at 0x1002C39EE: drbg_update (in /usr/lib/system/libcorecrypto.dylib)
==39753==    by 0x1002C3CB9: generate (in /usr/lib/system/libcorecrypto.dylib)
==39753==    by 0x10048CE87: arc4random_buf (in /usr/lib/system/libsystem_c.dylib)
==39753==    by 0x100773A24: _read_images (in /usr/lib/libobjc.A.dylib)
==39753==    by 0x100772A4F: _hasObjcContents (in /usr/lib/libobjc.A.dylib)
==39753==    by 0x10078555F: __objc_personality_v0 (in /usr/lib/libobjc.A.dylib)
==39753==    by 0x1000A047A: dyld::notifyBatchPartial(dyld_image_states, bool, char const* (*)(dyld_image_states, unsigned int, dyld_image_info const*), bool, bool) (in /usr/lib/dyld)
==39753==    by 0x1000A062D: dyld::registerObjCNotifiers(void (*)(unsigned int, char const* const*, mach_header const* const*), void (*)(char const*, mach_header const*), void (*)(char const*, mach_header const*)) (in /usr/lib/dyld)
==39753==    by 0x1003CDA26: _dyld_objc_notify_register (in /usr/lib/system/libdyld.dylib)
==39753==    by 0x100772233: environ_init (in /usr/lib/libobjc.A.dylib)
==39753==    by 0x100364E35: _os_object_init (in /usr/lib/system/libdispatch.dylib)
==39753==    by 0x100370AD1: libdispatch_init (in /usr/lib/system/libdispatch.dylib)
==39753== 
==39753== Conditional jump or move depends on uninitialised value(s)
==39753==    at 0x1002C3A4E: drbg_update (in /usr/lib/system/libcorecrypto.dylib)
==39753==    by 0x1002C3CB9: generate (in /usr/lib/system/libcorecrypto.dylib)
==39753==    by 0x10048CE87: arc4random_buf (in /usr/lib/system/libsystem_c.dylib)
==39753==    by 0x100773A24: _read_images (in /usr/lib/libobjc.A.dylib)
==39753==    by 0x100772A4F: _hasObjcContents (in /usr/lib/libobjc.A.dylib)
==39753==    by 0x10078555F: __objc_personality_v0 (in /usr/lib/libobjc.A.dylib)
==39753==    by 0x1000A047A: dyld::notifyBatchPartial(dyld_image_states, bool, char const* (*)(dyld_image_states, unsigned int, dyld_image_info const*), bool, bool) (in /usr/lib/dyld)
==39753==    by 0x1000A062D: dyld::registerObjCNotifiers(void (*)(unsigned int, char const* const*, mach_header const* const*), void (*)(char const*, mach_header const*), void (*)(char const*, mach_header const*)) (in /usr/lib/dyld)
==39753==    by 0x1003CDA26: _dyld_objc_notify_register (in /usr/lib/system/libdyld.dylib)
==39753==    by 0x100772233: environ_init (in /usr/lib/libobjc.A.dylib)
==39753==    by 0x100364E35: _os_object_init (in /usr/lib/system/libdispatch.dylib)
==39753==    by 0x100370AD1: libdispatch_init (in /usr/lib/system/libdispatch.dylib)
==39753== 
==39753== Conditional jump or move depends on uninitialised value(s)
==39753==    at 0x10077AA27: _objc_rootAlloc (in /usr/lib/libobjc.A.dylib)
==39753==    by 0x10071FCA4: _libxpc_initializer (in /usr/lib/system/libxpc.dylib)
==39753==    by 0x1002749C9: libSystem_initializer (in /usr/lib/libSystem.B.dylib)
==39753==    by 0x1000B3591: ImageLoaderMachO::doModInitFunctions(ImageLoader::LinkContext const&) (in /usr/lib/dyld)
==39753==    by 0x1000B3797: ImageLoaderMachO::doInitialization(ImageLoader::LinkContext const&) (in /usr/lib/dyld)
==39753==    by 0x1000AEBE9: ImageLoader::recursiveInitialization(ImageLoader::LinkContext const&, unsigned int, char const*, ImageLoader::InitializerTimingList&, ImageLoader::UninitedUpwards&) (in /usr/lib/dyld)
==39753==    by 0x1000AEB7F: ImageLoader::recursiveInitialization(ImageLoader::LinkContext const&, unsigned int, char const*, ImageLoader::InitializerTimingList&, ImageLoader::UninitedUpwards&) (in /usr/lib/dyld)
==39753==    by 0x1000ADD72: ImageLoader::processInitializers(ImageLoader::LinkContext const&, unsigned int, ImageLoader::InitializerTimingList&, ImageLoader::UninitedUpwards&) (in /usr/lib/dyld)
==39753==    by 0x1000ADE04: ImageLoader::runInitializers(ImageLoader::LinkContext const&, ImageLoader::InitializerTimingList&) (in /usr/lib/dyld)
==39753==    by 0x10009D71E: dyld::initializeMainExecutable() (in /usr/lib/dyld)
==39753==    by 0x1000A2708: dyld::_main(macho_header const*, unsigned long, int, char const**, char const**, char const**, unsigned long*) (in /usr/lib/dyld)
==39753==    by 0x10009C502: dyldbootstrap::start(macho_header const*, int, char const**, long, macho_header const*, unsigned long*) (in /usr/lib/dyld)
==39753== 
==39753== Use of uninitialised value of size 8
==39753==    at 0x10077AA29: _objc_rootAlloc (in /usr/lib/libobjc.A.dylib)
==39753==    by 0x10071FCA4: _libxpc_initializer (in /usr/lib/system/libxpc.dylib)
==39753==    by 0x1002749C9: libSystem_initializer (in /usr/lib/libSystem.B.dylib)
==39753==    by 0x1000B3591: ImageLoaderMachO::doModInitFunctions(ImageLoader::LinkContext const&) (in /usr/lib/dyld)
==39753==    by 0x1000B3797: ImageLoaderMachO::doInitialization(ImageLoader::LinkContext const&) (in /usr/lib/dyld)
==39753==    by 0x1000AEBE9: ImageLoader::recursiveInitialization(ImageLoader::LinkContext const&, unsigned int, char const*, ImageLoader::InitializerTimingList&, ImageLoader::UninitedUpwards&) (in /usr/lib/dyld)
==39753==    by 0x1000AEB7F: ImageLoader::recursiveInitialization(ImageLoader::LinkContext const&, unsigned int, char const*, ImageLoader::InitializerTimingList&, ImageLoader::UninitedUpwards&) (in /usr/lib/dyld)
==39753==    by 0x1000ADD72: ImageLoader::processInitializers(ImageLoader::LinkContext const&, unsigned int, ImageLoader::InitializerTimingList&, ImageLoader::UninitedUpwards&) (in /usr/lib/dyld)
==39753==    by 0x1000ADE04: ImageLoader::runInitializers(ImageLoader::LinkContext const&, ImageLoader::InitializerTimingList&) (in /usr/lib/dyld)
==39753==    by 0x10009D71E: dyld::initializeMainExecutable() (in /usr/lib/dyld)
==39753==    by 0x1000A2708: dyld::_main(macho_header const*, unsigned long, int, char const**, char const**, char const**, unsigned long*) (in /usr/lib/dyld)
==39753==    by 0x10009C502: dyldbootstrap::start(macho_header const*, int, char const**, long, macho_header const*, unsigned long*) (in /usr/lib/dyld)
==39753== 
==39753== Use of uninitialised value of size 8
==39753==    at 0x10077AA3B: objc_memmove_collectable (in /usr/lib/libobjc.A.dylib)
==39753==    by 0x10071FCA4: _libxpc_initializer (in /usr/lib/system/libxpc.dylib)
==39753==    by 0x1002749C9: libSystem_initializer (in /usr/lib/libSystem.B.dylib)
==39753==    by 0x1000B3591: ImageLoaderMachO::doModInitFunctions(ImageLoader::LinkContext const&) (in /usr/lib/dyld)
==39753==    by 0x1000B3797: ImageLoaderMachO::doInitialization(ImageLoader::LinkContext const&) (in /usr/lib/dyld)
==39753==    by 0x1000AEBE9: ImageLoader::recursiveInitialization(ImageLoader::LinkContext const&, unsigned int, char const*, ImageLoader::InitializerTimingList&, ImageLoader::UninitedUpwards&) (in /usr/lib/dyld)
==39753==    by 0x1000AEB7F: ImageLoader::recursiveInitialization(ImageLoader::LinkContext const&, unsigned int, char const*, ImageLoader::InitializerTimingList&, ImageLoader::UninitedUpwards&) (in /usr/lib/dyld)
==39753==    by 0x1000ADD72: ImageLoader::processInitializers(ImageLoader::LinkContext const&, unsigned int, ImageLoader::InitializerTimingList&, ImageLoader::UninitedUpwards&) (in /usr/lib/dyld)
==39753==    by 0x1000ADE04: ImageLoader::runInitializers(ImageLoader::LinkContext const&, ImageLoader::InitializerTimingList&) (in /usr/lib/dyld)
==39753==    by 0x10009D71E: dyld::initializeMainExecutable() (in /usr/lib/dyld)
==39753==    by 0x1000A2708: dyld::_main(macho_header const*, unsigned long, int, char const**, char const**, char const**, unsigned long*) (in /usr/lib/dyld)
==39753==    by 0x10009C502: dyldbootstrap::start(macho_header const*, int, char const**, long, macho_header const*, unsigned long*) (in /usr/lib/dyld)
==39753== 
==39753== Use of uninitialised value of size 8
==39753==    at 0x10077AA59: objc_initializeClassPair (in /usr/lib/libobjc.A.dylib)
==39753==    by 0x10071FCA4: _libxpc_initializer (in /usr/lib/system/libxpc.dylib)
==39753==    by 0x1002749C9: libSystem_initializer (in /usr/lib/libSystem.B.dylib)
==39753==    by 0x1000B3591: ImageLoaderMachO::doModInitFunctions(ImageLoader::LinkContext const&) (in /usr/lib/dyld)
==39753==    by 0x1000B3797: ImageLoaderMachO::doInitialization(ImageLoader::LinkContext const&) (in /usr/lib/dyld)
==39753==    by 0x1000AEBE9: ImageLoader::recursiveInitialization(ImageLoader::LinkContext const&, unsigned int, char const*, ImageLoader::InitializerTimingList&, ImageLoader::UninitedUpwards&) (in /usr/lib/dyld)
==39753==    by 0x1000AEB7F: ImageLoader::recursiveInitialization(ImageLoader::LinkContext const&, unsigned int, char const*, ImageLoader::InitializerTimingList&, ImageLoader::UninitedUpwards&) (in /usr/lib/dyld)
==39753==    by 0x1000ADD72: ImageLoader::processInitializers(ImageLoader::LinkContext const&, unsigned int, ImageLoader::InitializerTimingList&, ImageLoader::UninitedUpwards&) (in /usr/lib/dyld)
==39753==    by 0x1000ADE04: ImageLoader::runInitializers(ImageLoader::LinkContext const&, ImageLoader::InitializerTimingList&) (in /usr/lib/dyld)
==39753==    by 0x10009D71E: dyld::initializeMainExecutable() (in /usr/lib/dyld)
==39753==    by 0x1000A2708: dyld::_main(macho_header const*, unsigned long, int, char const**, char const**, char const**, unsigned long*) (in /usr/lib/dyld)
==39753==    by 0x10009C502: dyldbootstrap::start(macho_header const*, int, char const**, long, macho_header const*, unsigned long*) (in /usr/lib/dyld)
==39753== 
==39753== Use of uninitialised value of size 8
==39753==    at 0x10077AA67: objc_initializeClassPair (in /usr/lib/libobjc.A.dylib)
==39753==    by 0x10071FCA4: _libxpc_initializer (in /usr/lib/system/libxpc.dylib)
==39753==    by 0x1002749C9: libSystem_initializer (in /usr/lib/libSystem.B.dylib)
==39753==    by 0x1000B3591: ImageLoaderMachO::doModInitFunctions(ImageLoader::LinkContext const&) (in /usr/lib/dyld)
==39753==    by 0x1000B3797: ImageLoaderMachO::doInitialization(ImageLoader::LinkContext const&) (in /usr/lib/dyld)
==39753==    by 0x1000AEBE9: ImageLoader::recursiveInitialization(ImageLoader::LinkContext const&, unsigned int, char const*, ImageLoader::InitializerTimingList&, ImageLoader::UninitedUpwards&) (in /usr/lib/dyld)
==39753==    by 0x1000AEB7F: ImageLoader::recursiveInitialization(ImageLoader::LinkContext const&, unsigned int, char const*, ImageLoader::InitializerTimingList&, ImageLoader::UninitedUpwards&) (in /usr/lib/dyld)
==39753==    by 0x1000ADD72: ImageLoader::processInitializers(ImageLoader::LinkContext const&, unsigned int, ImageLoader::InitializerTimingList&, ImageLoader::UninitedUpwards&) (in /usr/lib/dyld)
==39753==    by 0x1000ADE04: ImageLoader::runInitializers(ImageLoader::LinkContext const&, ImageLoader::InitializerTimingList&) (in /usr/lib/dyld)
==39753==    by 0x10009D71E: dyld::initializeMainExecutable() (in /usr/lib/dyld)
==39753==    by 0x1000A2708: dyld::_main(macho_header const*, unsigned long, int, char const**, char const**, char const**, unsigned long*) (in /usr/lib/dyld)
==39753==    by 0x10009C502: dyldbootstrap::start(macho_header const*, int, char const**, long, macho_header const*, unsigned long*) (in /usr/lib/dyld)
==39753== 
==39753== Conditional jump or move depends on uninitialised value(s)
==39753==    at 0x10077AA27: _objc_rootAlloc (in /usr/lib/libobjc.A.dylib)
==39753==    by 0x10071FCBD: _libxpc_initializer (in /usr/lib/system/libxpc.dylib)
==39753==    by 0x1002749C9: libSystem_initializer (in /usr/lib/libSystem.B.dylib)
==39753==    by 0x1000B3591: ImageLoaderMachO::doModInitFunctions(ImageLoader::LinkContext const&) (in /usr/lib/dyld)
==39753==    by 0x1000B3797: ImageLoaderMachO::doInitialization(ImageLoader::LinkContext const&) (in /usr/lib/dyld)
==39753==    by 0x1000AEBE9: ImageLoader::recursiveInitialization(ImageLoader::LinkContext const&, unsigned int, char const*, ImageLoader::InitializerTimingList&, ImageLoader::UninitedUpwards&) (in /usr/lib/dyld)
==39753==    by 0x1000AEB7F: ImageLoader::recursiveInitialization(ImageLoader::LinkContext const&, unsigned int, char const*, ImageLoader::InitializerTimingList&, ImageLoader::UninitedUpwards&) (in /usr/lib/dyld)
==39753==    by 0x1000ADD72: ImageLoader::processInitializers(ImageLoader::LinkContext const&, unsigned int, ImageLoader::InitializerTimingList&, ImageLoader::UninitedUpwards&) (in /usr/lib/dyld)
==39753==    by 0x1000ADE04: ImageLoader::runInitializers(ImageLoader::LinkContext const&, ImageLoader::InitializerTimingList&) (in /usr/lib/dyld)
==39753==    by 0x10009D71E: dyld::initializeMainExecutable() (in /usr/lib/dyld)
==39753==    by 0x1000A2708: dyld::_main(macho_header const*, unsigned long, int, char const**, char const**, char const**, unsigned long*) (in /usr/lib/dyld)
==39753==    by 0x10009C502: dyldbootstrap::start(macho_header const*, int, char const**, long, macho_header const*, unsigned long*) (in /usr/lib/dyld)
==39753== 
==39753== Use of uninitialised value of size 8
==39753==    at 0x10077AA29: _objc_rootAlloc (in /usr/lib/libobjc.A.dylib)
==39753==    by 0x10071FCBD: _libxpc_initializer (in /usr/lib/system/libxpc.dylib)
==39753==    by 0x1002749C9: libSystem_initializer (in /usr/lib/libSystem.B.dylib)
==39753==    by 0x1000B3591: ImageLoaderMachO::doModInitFunctions(ImageLoader::LinkContext const&) (in /usr/lib/dyld)
==39753==    by 0x1000B3797: ImageLoaderMachO::doInitialization(ImageLoader::LinkContext const&) (in /usr/lib/dyld)
==39753==    by 0x1000AEBE9: ImageLoader::recursiveInitialization(ImageLoader::LinkContext const&, unsigned int, char const*, ImageLoader::InitializerTimingList&, ImageLoader::UninitedUpwards&) (in /usr/lib/dyld)
==39753==    by 0x1000AEB7F: ImageLoader::recursiveInitialization(ImageLoader::LinkContext const&, unsigned int, char const*, ImageLoader::InitializerTimingList&, ImageLoader::UninitedUpwards&) (in /usr/lib/dyld)
==39753==    by 0x1000ADD72: ImageLoader::processInitializers(ImageLoader::LinkContext const&, unsigned int, ImageLoader::InitializerTimingList&, ImageLoader::UninitedUpwards&) (in /usr/lib/dyld)
==39753==    by 0x1000ADE04: ImageLoader::runInitializers(ImageLoader::LinkContext const&, ImageLoader::InitializerTimingList&) (in /usr/lib/dyld)
==39753==    by 0x10009D71E: dyld::initializeMainExecutable() (in /usr/lib/dyld)
==39753==    by 0x1000A2708: dyld::_main(macho_header const*, unsigned long, int, char const**, char const**, char const**, unsigned long*) (in /usr/lib/dyld)
==39753==    by 0x10009C502: dyldbootstrap::start(macho_header const*, int, char const**, long, macho_header const*, unsigned long*) (in /usr/lib/dyld)
==39753== 
==39753== Use of uninitialised value of size 8
==39753==    at 0x10077AA3B: objc_memmove_collectable (in /usr/lib/libobjc.A.dylib)
==39753==    by 0x10071FCBD: _libxpc_initializer (in /usr/lib/system/libxpc.dylib)
==39753==    by 0x1002749C9: libSystem_initializer (in /usr/lib/libSystem.B.dylib)
==39753==    by 0x1000B3591: ImageLoaderMachO::doModInitFunctions(ImageLoader::LinkContext const&) (in /usr/lib/dyld)
==39753==    by 0x1000B3797: ImageLoaderMachO::doInitialization(ImageLoader::LinkContext const&) (in /usr/lib/dyld)
==39753==    by 0x1000AEBE9: ImageLoader::recursiveInitialization(ImageLoader::LinkContext const&, unsigned int, char const*, ImageLoader::InitializerTimingList&, ImageLoader::UninitedUpwards&) (in /usr/lib/dyld)
==39753==    by 0x1000AEB7F: ImageLoader::recursiveInitialization(ImageLoader::LinkContext const&, unsigned int, char const*, ImageLoader::InitializerTimingList&, ImageLoader::UninitedUpwards&) (in /usr/lib/dyld)
==39753==    by 0x1000ADD72: ImageLoader::processInitializers(ImageLoader::LinkContext const&, unsigned int, ImageLoader::InitializerTimingList&, ImageLoader::UninitedUpwards&) (in /usr/lib/dyld)
==39753==    by 0x1000ADE04: ImageLoader::runInitializers(ImageLoader::LinkContext const&, ImageLoader::InitializerTimingList&) (in /usr/lib/dyld)
==39753==    by 0x10009D71E: dyld::initializeMainExecutable() (in /usr/lib/dyld)
==39753==    by 0x1000A2708: dyld::_main(macho_header const*, unsigned long, int, char const**, char const**, char const**, unsigned long*) (in /usr/lib/dyld)
==39753==    by 0x10009C502: dyldbootstrap::start(macho_header const*, int, char const**, long, macho_header const*, unsigned long*) (in /usr/lib/dyld)
==39753== 
==39753== Use of uninitialised value of size 8
==39753==    at 0x10077AA59: objc_initializeClassPair (in /usr/lib/libobjc.A.dylib)
==39753==    by 0x10071FCBD: _libxpc_initializer (in /usr/lib/system/libxpc.dylib)
==39753==    by 0x1002749C9: libSystem_initializer (in /usr/lib/libSystem.B.dylib)
==39753==    by 0x1000B3591: ImageLoaderMachO::doModInitFunctions(ImageLoader::LinkContext const&) (in /usr/lib/dyld)
==39753==    by 0x1000B3797: ImageLoaderMachO::doInitialization(ImageLoader::LinkContext const&) (in /usr/lib/dyld)
==39753==    by 0x1000AEBE9: ImageLoader::recursiveInitialization(ImageLoader::LinkContext const&, unsigned int, char const*, ImageLoader::InitializerTimingList&, ImageLoader::UninitedUpwards&) (in /usr/lib/dyld)
==39753==    by 0x1000AEB7F: ImageLoader::recursiveInitialization(ImageLoader::LinkContext const&, unsigned int, char const*, ImageLoader::InitializerTimingList&, ImageLoader::UninitedUpwards&) (in /usr/lib/dyld)
==39753==    by 0x1000ADD72: ImageLoader::processInitializers(ImageLoader::LinkContext const&, unsigned int, ImageLoader::InitializerTimingList&, ImageLoader::UninitedUpwards&) (in /usr/lib/dyld)
==39753==    by 0x1000ADE04: ImageLoader::runInitializers(ImageLoader::LinkContext const&, ImageLoader::InitializerTimingList&) (in /usr/lib/dyld)
==39753==    by 0x10009D71E: dyld::initializeMainExecutable() (in /usr/lib/dyld)
==39753==    by 0x1000A2708: dyld::_main(macho_header const*, unsigned long, int, char const**, char const**, char const**, unsigned long*) (in /usr/lib/dyld)
==39753==    by 0x10009C502: dyldbootstrap::start(macho_header const*, int, char const**, long, macho_header const*, unsigned long*) (in /usr/lib/dyld)
==39753== 
==39753== Conditional jump or move depends on uninitialised value(s)
==39753==    at 0x100720C1F: xpc_uint64_create (in /usr/lib/system/libxpc.dylib)
==39753==    by 0x100720BAD: _xpc_collect_images (in /usr/lib/system/libxpc.dylib)
==39753==    by 0x10072001E: _libxpc_initializer (in /usr/lib/system/libxpc.dylib)
==39753==    by 0x1002749C9: libSystem_initializer (in /usr/lib/libSystem.B.dylib)
==39753==    by 0x1000B3591: ImageLoaderMachO::doModInitFunctions(ImageLoader::LinkContext const&) (in /usr/lib/dyld)
==39753==    by 0x1000B3797: ImageLoaderMachO::doInitialization(ImageLoader::LinkContext const&) (in /usr/lib/dyld)
==39753==    by 0x1000AEBE9: ImageLoader::recursiveInitialization(ImageLoader::LinkContext const&, unsigned int, char const*, ImageLoader::InitializerTimingList&, ImageLoader::UninitedUpwards&) (in /usr/lib/dyld)
==39753==    by 0x1000AEB7F: ImageLoader::recursiveInitialization(ImageLoader::LinkContext const&, unsigned int, char const*, ImageLoader::InitializerTimingList&, ImageLoader::UninitedUpwards&) (in /usr/lib/dyld)
==39753==    by 0x1000ADD72: ImageLoader::processInitializers(ImageLoader::LinkContext const&, unsigned int, ImageLoader::InitializerTimingList&, ImageLoader::UninitedUpwards&) (in /usr/lib/dyld)
==39753==    by 0x1000ADE04: ImageLoader::runInitializers(ImageLoader::LinkContext const&, ImageLoader::InitializerTimingList&) (in /usr/lib/dyld)
==39753==    by 0x10009D71E: dyld::initializeMainExecutable() (in /usr/lib/dyld)
==39753==    by 0x1000A2708: dyld::_main(macho_header const*, unsigned long, int, char const**, char const**, char const**, unsigned long*) (in /usr/lib/dyld)
==39753== 
==39753== Conditional jump or move depends on uninitialised value(s)
==39753==    at 0x10072097A: _xpc_dictionary_insert (in /usr/lib/system/libxpc.dylib)
==39753==    by 0x100720D05: _xpc_dyld_image_callback (in /usr/lib/system/libxpc.dylib)
==39753==    by 0x10009F873: dyld::registerLoadCallback(void (*)(mach_header const*, char const*, bool)) (in /usr/lib/dyld)
==39753==    by 0x100720BBD: _xpc_collect_images (in /usr/lib/system/libxpc.dylib)
==39753==    by 0x10072001E: _libxpc_initializer (in /usr/lib/system/libxpc.dylib)
==39753==    by 0x1002749C9: libSystem_initializer (in /usr/lib/libSystem.B.dylib)
==39753==    by 0x1000B3591: ImageLoaderMachO::doModInitFunctions(ImageLoader::LinkContext const&) (in /usr/lib/dyld)
==39753==    by 0x1000B3797: ImageLoaderMachO::doInitialization(ImageLoader::LinkContext const&) (in /usr/lib/dyld)
==39753==    by 0x1000AEBE9: ImageLoader::recursiveInitialization(ImageLoader::LinkContext const&, unsigned int, char const*, ImageLoader::InitializerTimingList&, ImageLoader::UninitedUpwards&) (in /usr/lib/dyld)
==39753==    by 0x1000AEB7F: ImageLoader::recursiveInitialization(ImageLoader::LinkContext const&, unsigned int, char const*, ImageLoader::InitializerTimingList&, ImageLoader::UninitedUpwards&) (in /usr/lib/dyld)
==39753==    by 0x1000ADD72: ImageLoader::processInitializers(ImageLoader::LinkContext const&, unsigned int, ImageLoader::InitializerTimingList&, ImageLoader::UninitedUpwards&) (in /usr/lib/dyld)
==39753==    by 0x1000ADE04: ImageLoader::runInitializers(ImageLoader::LinkContext const&, ImageLoader::InitializerTimingList&) (in /usr/lib/dyld)
==39753== 
==39753== Conditional jump or move depends on uninitialised value(s)
==39753==    at 0x1007209E4: _xpc_dictionary_insert (in /usr/lib/system/libxpc.dylib)
==39753==    by 0x100720D05: _xpc_dyld_image_callback (in /usr/lib/system/libxpc.dylib)
==39753==    by 0x10009F873: dyld::registerLoadCallback(void (*)(mach_header const*, char const*, bool)) (in /usr/lib/dyld)
==39753==    by 0x100720BBD: _xpc_collect_images (in /usr/lib/system/libxpc.dylib)
==39753==    by 0x10072001E: _libxpc_initializer (in /usr/lib/system/libxpc.dylib)
==39753==    by 0x1002749C9: libSystem_initializer (in /usr/lib/libSystem.B.dylib)
==39753==    by 0x1000B3591: ImageLoaderMachO::doModInitFunctions(ImageLoader::LinkContext const&) (in /usr/lib/dyld)
==39753==    by 0x1000B3797: ImageLoaderMachO::doInitialization(ImageLoader::LinkContext const&) (in /usr/lib/dyld)
==39753==    by 0x1000AEBE9: ImageLoader::recursiveInitialization(ImageLoader::LinkContext const&, unsigned int, char const*, ImageLoader::InitializerTimingList&, ImageLoader::UninitedUpwards&) (in /usr/lib/dyld)
==39753==    by 0x1000AEB7F: ImageLoader::recursiveInitialization(ImageLoader::LinkContext const&, unsigned int, char const*, ImageLoader::InitializerTimingList&, ImageLoader::UninitedUpwards&) (in /usr/lib/dyld)
==39753==    by 0x1000ADD72: ImageLoader::processInitializers(ImageLoader::LinkContext const&, unsigned int, ImageLoader::InitializerTimingList&, ImageLoader::UninitedUpwards&) (in /usr/lib/dyld)
==39753==    by 0x1000ADE04: ImageLoader::runInitializers(ImageLoader::LinkContext const&, ImageLoader::InitializerTimingList&) (in /usr/lib/dyld)
==39753== 
==39753== Syscall param stat64(path) points to unaddressable byte(s)
==39753==    at 0x100677EDA: stat$INODE64 (in /usr/lib/system/libsystem_kernel.dylib)
==39753==    by 0x10001FC4E: FileAbstract::isDirectory(char const*) (FileAbstract.cpp:8)
==39753==    by 0x10000DA60: Link::Link(std::__1::basic_string<char, std::__1::char_traits<char>, std::__1::allocator<char> > const&) (Link.hpp:30)
==39753==    by 0x10000BDFC: Link::Link(std::__1::basic_string<char, std::__1::char_traits<char>, std::__1::allocator<char> > const&) (Link.hpp:14)
==39753==    by 0x10000B7F4: Folder::Scan() (Folder.cpp:55)
==39753==    by 0x10000107B: Window::Window() (Window.hpp:24)
==39753==    by 0x100000FB4: Window::Window() (Window.hpp:21)
==39753==    by 0x100000BF4: main (main.cpp:10)
==39753==  Address 0x10113cab6 is 0 bytes after a block of size 38 alloc'd
==39753==    at 0x1001715C6: malloc (in /usr/local/Cellar/valgrind/HEAD-1ca0fe2/lib/valgrind/vgpreload_memcheck-amd64-darwin.so)
==39753==    by 0x1010AF377: operator new(unsigned long) (in /usr/lib/libc++abi.dylib)
==39753==    by 0x10000D9C6: Link::Link(std::__1::basic_string<char, std::__1::char_traits<char>, std::__1::allocator<char> > const&) (Link.hpp:22)
==39753==    by 0x10000BDFC: Link::Link(std::__1::basic_string<char, std::__1::char_traits<char>, std::__1::allocator<char> > const&) (Link.hpp:14)
==39753==    by 0x10000B7F4: Folder::Scan() (Folder.cpp:55)
==39753==    by 0x10000107B: Window::Window() (Window.hpp:24)
==39753==    by 0x100000FB4: Window::Window() (Window.hpp:21)
==39753==    by 0x100000BF4: main (main.cpp:10)
==39753== 
==39753== Conditional jump or move depends on uninitialised value(s)
==39753==    at 0x1006B9752: _platform_strlen (in /usr/lib/system/libsystem_platform.dylib)
==39753==    by 0x100001CA4: std::__1::char_traits<char>::length(char const*) (__string:217)
==39753==    by 0x100011260: std::__1::basic_string<char, std::__1::char_traits<char>, std::__1::allocator<char> >::basic_string<decltype(nullptr)>(char const*) (string:813)
==39753==    by 0x10000BBBC: std::__1::basic_string<char, std::__1::char_traits<char>, std::__1::allocator<char> >::basic_string<decltype(nullptr)>(char const*) (string:811)
==39753==    by 0x10000DBBD: Link::Link(std::__1::basic_string<char, std::__1::char_traits<char>, std::__1::allocator<char> > const&) (Link.hpp:32)
==39753==    by 0x10000BDFC: Link::Link(std::__1::basic_string<char, std::__1::char_traits<char>, std::__1::allocator<char> > const&) (Link.hpp:14)
==39753==    by 0x10000B7F4: Folder::Scan() (Folder.cpp:55)
==39753==    by 0x10000107B: Window::Window() (Window.hpp:24)
==39753==    by 0x100000FB4: Window::Window() (Window.hpp:21)
==39753==    by 0x100000BF4: main (main.cpp:10)
==39753== 
==39753== Conditional jump or move depends on uninitialised value(s)
==39753==    at 0x1001C8FF6: std::__1::basic_string<char, std::__1::char_traits<char>, std::__1::allocator<char> >::__init(char const*, unsigned long) (in /usr/lib/libc++.1.dylib)
==39753==    by 0x100011270: std::__1::basic_string<char, std::__1::char_traits<char>, std::__1::allocator<char> >::basic_string<decltype(nullptr)>(char const*) (string:813)
==39753==    by 0x10000BBBC: std::__1::basic_string<char, std::__1::char_traits<char>, std::__1::allocator<char> >::basic_string<decltype(nullptr)>(char const*) (string:811)
==39753==    by 0x10000DBBD: Link::Link(std::__1::basic_string<char, std::__1::char_traits<char>, std::__1::allocator<char> > const&) (Link.hpp:32)
==39753==    by 0x10000BDFC: Link::Link(std::__1::basic_string<char, std::__1::char_traits<char>, std::__1::allocator<char> > const&) (Link.hpp:14)
==39753==    by 0x10000B7F4: Folder::Scan() (Folder.cpp:55)
==39753==    by 0x10000107B: Window::Window() (Window.hpp:24)
==39753==    by 0x100000FB4: Window::Window() (Window.hpp:21)
==39753==    by 0x100000BF4: main (main.cpp:10)
==39753== 
==39753== Conditional jump or move depends on uninitialised value(s)
==39753==    at 0x1001C9002: std::__1::basic_string<char, std::__1::char_traits<char>, std::__1::allocator<char> >::__init(char const*, unsigned long) (in /usr/lib/libc++.1.dylib)
==39753==    by 0x100011270: std::__1::basic_string<char, std::__1::char_traits<char>, std::__1::allocator<char> >::basic_string<decltype(nullptr)>(char const*) (string:813)
==39753==    by 0x10000BBBC: std::__1::basic_string<char, std::__1::char_traits<char>, std::__1::allocator<char> >::basic_string<decltype(nullptr)>(char const*) (string:811)
==39753==    by 0x10000DBBD: Link::Link(std::__1::basic_string<char, std::__1::char_traits<char>, std::__1::allocator<char> > const&) (Link.hpp:32)
==39753==    by 0x10000BDFC: Link::Link(std::__1::basic_string<char, std::__1::char_traits<char>, std::__1::allocator<char> > const&) (Link.hpp:14)
==39753==    by 0x10000B7F4: Folder::Scan() (Folder.cpp:55)
==39753==    by 0x10000107B: Window::Window() (Window.hpp:24)
==39753==    by 0x100000FB4: Window::Window() (Window.hpp:21)
==39753==    by 0x100000BF4: main (main.cpp:10)
==39753== 
==39753== Conditional jump or move depends on uninitialised value(s)
==39753==    at 0x10017156D: malloc (in /usr/local/Cellar/valgrind/HEAD-1ca0fe2/lib/valgrind/vgpreload_memcheck-amd64-darwin.so)
==39753==    by 0x1010AF377: operator new(unsigned long) (in /usr/lib/libc++abi.dylib)
==39753==    by 0x1001C9027: std::__1::basic_string<char, std::__1::char_traits<char>, std::__1::allocator<char> >::__init(char const*, unsigned long) (in /usr/lib/libc++.1.dylib)
==39753==    by 0x100011270: std::__1::basic_string<char, std::__1::char_traits<char>, std::__1::allocator<char> >::basic_string<decltype(nullptr)>(char const*) (string:813)
==39753==    by 0x10000BBBC: std::__1::basic_string<char, std::__1::char_traits<char>, std::__1::allocator<char> >::basic_string<decltype(nullptr)>(char const*) (string:811)
==39753==    by 0x10000DBBD: Link::Link(std::__1::basic_string<char, std::__1::char_traits<char>, std::__1::allocator<char> > const&) (Link.hpp:32)
==39753==    by 0x10000BDFC: Link::Link(std::__1::basic_string<char, std::__1::char_traits<char>, std::__1::allocator<char> > const&) (Link.hpp:14)
==39753==    by 0x10000B7F4: Folder::Scan() (Folder.cpp:55)
==39753==    by 0x10000107B: Window::Window() (Window.hpp:24)
==39753==    by 0x100000FB4: Window::Window() (Window.hpp:21)
==39753==    by 0x100000BF4: main (main.cpp:10)
==39753== 
==39753== Conditional jump or move depends on uninitialised value(s)
==39753==    at 0x1006B9CF0: _platform_memmove$VARIANT$Haswell (in /usr/lib/system/libsystem_platform.dylib)
==39753==    by 0x1001C9047: std::__1::basic_string<char, std::__1::char_traits<char>, std::__1::allocator<char> >::__init(char const*, unsigned long) (in /usr/lib/libc++.1.dylib)
==39753==    by 0x100011270: std::__1::basic_string<char, std::__1::char_traits<char>, std::__1::allocator<char> >::basic_string<decltype(nullptr)>(char const*) (string:813)
==39753==    by 0x10000BBBC: std::__1::basic_string<char, std::__1::char_traits<char>, std::__1::allocator<char> >::basic_string<decltype(nullptr)>(char const*) (string:811)
==39753==    by 0x10000DBBD: Link::Link(std::__1::basic_string<char, std::__1::char_traits<char>, std::__1::allocator<char> > const&) (Link.hpp:32)
==39753==    by 0x10000BDFC: Link::Link(std::__1::basic_string<char, std::__1::char_traits<char>, std::__1::allocator<char> > const&) (Link.hpp:14)
==39753==    by 0x10000B7F4: Folder::Scan() (Folder.cpp:55)
==39753==    by 0x10000107B: Window::Window() (Window.hpp:24)
==39753==    by 0x100000FB4: Window::Window() (Window.hpp:21)
==39753==    by 0x100000BF4: main (main.cpp:10)
==39753== 
==39753== Conditional jump or move depends on uninitialised value(s)
==39753==    at 0x1006B9CF6: _platform_memmove$VARIANT$Haswell (in /usr/lib/system/libsystem_platform.dylib)
==39753==    by 0x1001C9047: std::__1::basic_string<char, std::__1::char_traits<char>, std::__1::allocator<char> >::__init(char const*, unsigned long) (in /usr/lib/libc++.1.dylib)
==39753==    by 0x100011270: std::__1::basic_string<char, std::__1::char_traits<char>, std::__1::allocator<char> >::basic_string<decltype(nullptr)>(char const*) (string:813)
==39753==    by 0x10000BBBC: std::__1::basic_string<char, std::__1::char_traits<char>, std::__1::allocator<char> >::basic_string<decltype(nullptr)>(char const*) (string:811)
==39753==    by 0x10000DBBD: Link::Link(std::__1::basic_string<char, std::__1::char_traits<char>, std::__1::allocator<char> > const&) (Link.hpp:32)
==39753==    by 0x10000BDFC: Link::Link(std::__1::basic_string<char, std::__1::char_traits<char>, std::__1::allocator<char> > const&) (Link.hpp:14)
==39753==    by 0x10000B7F4: Folder::Scan() (Folder.cpp:55)
==39753==    by 0x10000107B: Window::Window() (Window.hpp:24)
==39753==    by 0x100000FB4: Window::Window() (Window.hpp:21)
==39753==    by 0x100000BF4: main (main.cpp:10)
==39753== 
==39753== Conditional jump or move depends on uninitialised value(s)
==39753==    at 0x1006B9D2B: _platform_memmove$VARIANT$Haswell (in /usr/lib/system/libsystem_platform.dylib)
==39753==    by 0x1001C9047: std::__1::basic_string<char, std::__1::char_traits<char>, std::__1::allocator<char> >::__init(char const*, unsigned long) (in /usr/lib/libc++.1.dylib)
==39753==    by 0x100011270: std::__1::basic_string<char, std::__1::char_traits<char>, std::__1::allocator<char> >::basic_string<decltype(nullptr)>(char const*) (string:813)
==39753==    by 0x10000BBBC: std::__1::basic_string<char, std::__1::char_traits<char>, std::__1::allocator<char> >::basic_string<decltype(nullptr)>(char const*) (string:811)
==39753==    by 0x10000DBBD: Link::Link(std::__1::basic_string<char, std::__1::char_traits<char>, std::__1::allocator<char> > const&) (Link.hpp:32)
==39753==    by 0x10000BDFC: Link::Link(std::__1::basic_string<char, std::__1::char_traits<char>, std::__1::allocator<char> > const&) (Link.hpp:14)
==39753==    by 0x10000B7F4: Folder::Scan() (Folder.cpp:55)
==39753==    by 0x10000107B: Window::Window() (Window.hpp:24)
==39753==    by 0x100000FB4: Window::Window() (Window.hpp:21)
==39753==    by 0x100000BF4: main (main.cpp:10)
==39753== 
==39753== Use of uninitialised value of size 8
==39753==    at 0x1006B9D2D: _platform_memmove$VARIANT$Haswell (in /usr/lib/system/libsystem_platform.dylib)
==39753==    by 0x1001C9047: std::__1::basic_string<char, std::__1::char_traits<char>, std::__1::allocator<char> >::__init(char const*, unsigned long) (in /usr/lib/libc++.1.dylib)
==39753==    by 0x100011270: std::__1::basic_string<char, std::__1::char_traits<char>, std::__1::allocator<char> >::basic_string<decltype(nullptr)>(char const*) (string:813)
==39753==    by 0x10000BBBC: std::__1::basic_string<char, std::__1::char_traits<char>, std::__1::allocator<char> >::basic_string<decltype(nullptr)>(char const*) (string:811)
==39753==    by 0x10000DBBD: Link::Link(std::__1::basic_string<char, std::__1::char_traits<char>, std::__1::allocator<char> > const&) (Link.hpp:32)
==39753==    by 0x10000BDFC: Link::Link(std::__1::basic_string<char, std::__1::char_traits<char>, std::__1::allocator<char> > const&) (Link.hpp:14)
==39753==    by 0x10000B7F4: Folder::Scan() (Folder.cpp:55)
==39753==    by 0x10000107B: Window::Window() (Window.hpp:24)
==39753==    by 0x100000FB4: Window::Window() (Window.hpp:21)
==39753==    by 0x100000BF4: main (main.cpp:10)
==39753== 
==39753== Conditional jump or move depends on uninitialised value(s)
==39753==    at 0x1006B9D37: _platform_memmove$VARIANT$Haswell (in /usr/lib/system/libsystem_platform.dylib)
==39753==    by 0x1001C9047: std::__1::basic_string<char, std::__1::char_traits<char>, std::__1::allocator<char> >::__init(char const*, unsigned long) (in /usr/lib/libc++.1.dylib)
==39753==    by 0x100011270: std::__1::basic_string<char, std::__1::char_traits<char>, std::__1::allocator<char> >::basic_string<decltype(nullptr)>(char const*) (string:813)
==39753==    by 0x10000BBBC: std::__1::basic_string<char, std::__1::char_traits<char>, std::__1::allocator<char> >::basic_string<decltype(nullptr)>(char const*) (string:811)
==39753==    by 0x10000DBBD: Link::Link(std::__1::basic_string<char, std::__1::char_traits<char>, std::__1::allocator<char> > const&) (Link.hpp:32)
==39753==    by 0x10000BDFC: Link::Link(std::__1::basic_string<char, std::__1::char_traits<char>, std::__1::allocator<char> > const&) (Link.hpp:14)
==39753==    by 0x10000B7F4: Folder::Scan() (Folder.cpp:55)
==39753==    by 0x10000107B: Window::Window() (Window.hpp:24)
==39753==    by 0x100000FB4: Window::Window() (Window.hpp:21)
==39753==    by 0x100000BF4: main (main.cpp:10)
==39753== 
==39753== Conditional jump or move depends on uninitialised value(s)
==39753==    at 0x1006B9D4D: _platform_memmove$VARIANT$Haswell (in /usr/lib/system/libsystem_platform.dylib)
==39753==    by 0x1001C9047: std::__1::basic_string<char, std::__1::char_traits<char>, std::__1::allocator<char> >::__init(char const*, unsigned long) (in /usr/lib/libc++.1.dylib)
==39753==    by 0x100011270: std::__1::basic_string<char, std::__1::char_traits<char>, std::__1::allocator<char> >::basic_string<decltype(nullptr)>(char const*) (string:813)
==39753==    by 0x10000BBBC: std::__1::basic_string<char, std::__1::char_traits<char>, std::__1::allocator<char> >::basic_string<decltype(nullptr)>(char const*) (string:811)
==39753==    by 0x10000DBBD: Link::Link(std::__1::basic_string<char, std::__1::char_traits<char>, std::__1::allocator<char> > const&) (Link.hpp:32)
==39753==    by 0x10000BDFC: Link::Link(std::__1::basic_string<char, std::__1::char_traits<char>, std::__1::allocator<char> > const&) (Link.hpp:14)
==39753==    by 0x10000B7F4: Folder::Scan() (Folder.cpp:55)
==39753==    by 0x10000107B: Window::Window() (Window.hpp:24)
==39753==    by 0x100000FB4: Window::Window() (Window.hpp:21)
==39753==    by 0x100000BF4: main (main.cpp:10)
==39753== 
==39753== Conditional jump or move depends on uninitialised value(s)
==39753==    at 0x1006B9D67: _platform_memmove$VARIANT$Haswell (in /usr/lib/system/libsystem_platform.dylib)
==39753==    by 0x1001C9047: std::__1::basic_string<char, std::__1::char_traits<char>, std::__1::allocator<char> >::__init(char const*, unsigned long) (in /usr/lib/libc++.1.dylib)
==39753==    by 0x100011270: std::__1::basic_string<char, std::__1::char_traits<char>, std::__1::allocator<char> >::basic_string<decltype(nullptr)>(char const*) (string:813)
==39753==    by 0x10000BBBC: std::__1::basic_string<char, std::__1::char_traits<char>, std::__1::allocator<char> >::basic_string<decltype(nullptr)>(char const*) (string:811)
==39753==    by 0x10000DBBD: Link::Link(std::__1::basic_string<char, std::__1::char_traits<char>, std::__1::allocator<char> > const&) (Link.hpp:32)
==39753==    by 0x10000BDFC: Link::Link(std::__1::basic_string<char, std::__1::char_traits<char>, std::__1::allocator<char> > const&) (Link.hpp:14)
==39753==    by 0x10000B7F4: Folder::Scan() (Folder.cpp:55)
==39753==    by 0x10000107B: Window::Window() (Window.hpp:24)
==39753==    by 0x100000FB4: Window::Window() (Window.hpp:21)
==39753==    by 0x100000BF4: main (main.cpp:10)
==39753== 
==39753== Use of uninitialised value of size 8
==39753==    at 0x1006B9D75: _platform_memmove$VARIANT$Haswell (in /usr/lib/system/libsystem_platform.dylib)
==39753==    by 0x1001C9047: std::__1::basic_string<char, std::__1::char_traits<char>, std::__1::allocator<char> >::__init(char const*, unsigned long) (in /usr/lib/libc++.1.dylib)
==39753==    by 0x100011270: std::__1::basic_string<char, std::__1::char_traits<char>, std::__1::allocator<char> >::basic_string<decltype(nullptr)>(char const*) (string:813)
==39753==    by 0x10000BBBC: std::__1::basic_string<char, std::__1::char_traits<char>, std::__1::allocator<char> >::basic_string<decltype(nullptr)>(char const*) (string:811)
==39753==    by 0x10000DBBD: Link::Link(std::__1::basic_string<char, std::__1::char_traits<char>, std::__1::allocator<char> > const&) (Link.hpp:32)
==39753==    by 0x10000BDFC: Link::Link(std::__1::basic_string<char, std::__1::char_traits<char>, std::__1::allocator<char> > const&) (Link.hpp:14)
==39753==    by 0x10000B7F4: Folder::Scan() (Folder.cpp:55)
==39753==    by 0x10000107B: Window::Window() (Window.hpp:24)
==39753==    by 0x100000FB4: Window::Window() (Window.hpp:21)
==39753==    by 0x100000BF4: main (main.cpp:10)
==39753== 
==39753== Use of uninitialised value of size 8
==39753==    at 0x1001C9048: std::__1::basic_string<char, std::__1::char_traits<char>, std::__1::allocator<char> >::__init(char const*, unsigned long) (in /usr/lib/libc++.1.dylib)
==39753==    by 0x100011270: std::__1::basic_string<char, std::__1::char_traits<char>, std::__1::allocator<char> >::basic_string<decltype(nullptr)>(char const*) (string:813)
==39753==    by 0x10000BBBC: std::__1::basic_string<char, std::__1::char_traits<char>, std::__1::allocator<char> >::basic_string<decltype(nullptr)>(char const*) (string:811)
==39753==    by 0x10000DBBD: Link::Link(std::__1::basic_string<char, std::__1::char_traits<char>, std::__1::allocator<char> > const&) (Link.hpp:32)
==39753==    by 0x10000BDFC: Link::Link(std::__1::basic_string<char, std::__1::char_traits<char>, std::__1::allocator<char> > const&) (Link.hpp:14)
==39753==    by 0x10000B7F4: Folder::Scan() (Folder.cpp:55)
==39753==    by 0x10000107B: Window::Window() (Window.hpp:24)
==39753==    by 0x100000FB4: Window::Window() (Window.hpp:21)
==39753==    by 0x100000BF4: main (main.cpp:10)
==39753== 
==39753== Conditional jump or move depends on uninitialised value(s)
==39753==    at 0x1001C35DC: std::__1::basic_string<char, std::__1::char_traits<char>, std::__1::allocator<char> >::basic_string(std::__1::basic_string<char, std::__1::char_traits<char>, std::__1::allocator<char> > const&) (in /usr/lib/libc++.1.dylib)
==39753==    by 0x100001D83: FileAbstract::FileAbstract(std::__1::basic_string<char, std::__1::char_traits<char>, std::__1::allocator<char> > const&) (FileAbstract.hpp:19)
==39753==    by 0x10000DCF6: File::File(std::__1::basic_string<char, std::__1::char_traits<char>, std::__1::allocator<char> > const&) (File.hpp:14)
==39753==    by 0x10000BE5C: File::File(std::__1::basic_string<char, std::__1::char_traits<char>, std::__1::allocator<char> > const&) (File.hpp:14)
==39753==    by 0x10000DBD5: Link::Link(std::__1::basic_string<char, std::__1::char_traits<char>, std::__1::allocator<char> > const&) (Link.hpp:32)
==39753==    by 0x10000BDFC: Link::Link(std::__1::basic_string<char, std::__1::char_traits<char>, std::__1::allocator<char> > const&) (Link.hpp:14)
==39753==    by 0x10000B7F4: Folder::Scan() (Folder.cpp:55)
==39753==    by 0x10000107B: Window::Window() (Window.hpp:24)
==39753==    by 0x100000FB4: Window::Window() (Window.hpp:21)
==39753==    by 0x100000BF4: main (main.cpp:10)
==39753== 
==39753== Conditional jump or move depends on uninitialised value(s)
==39753==    at 0x1001C35E6: std::__1::basic_string<char, std::__1::char_traits<char>, std::__1::allocator<char> >::basic_string(std::__1::basic_string<char, std::__1::char_traits<char>, std::__1::allocator<char> > const&) (in /usr/lib/libc++.1.dylib)
==39753==    by 0x100001D83: FileAbstract::FileAbstract(std::__1::basic_string<char, std::__1::char_traits<char>, std::__1::allocator<char> > const&) (FileAbstract.hpp:19)
==39753==    by 0x10000DCF6: File::File(std::__1::basic_string<char, std::__1::char_traits<char>, std::__1::allocator<char> > const&) (File.hpp:14)
==39753==    by 0x10000BE5C: File::File(std::__1::basic_string<char, std::__1::char_traits<char>, std::__1::allocator<char> > const&) (File.hpp:14)
==39753==    by 0x10000DBD5: Link::Link(std::__1::basic_string<char, std::__1::char_traits<char>, std::__1::allocator<char> > const&) (Link.hpp:32)
==39753==    by 0x10000BDFC: Link::Link(std::__1::basic_string<char, std::__1::char_traits<char>, std::__1::allocator<char> > const&) (Link.hpp:14)
==39753==    by 0x10000B7F4: Folder::Scan() (Folder.cpp:55)
==39753==    by 0x10000107B: Window::Window() (Window.hpp:24)
==39753==    by 0x100000FB4: Window::Window() (Window.hpp:21)
==39753==    by 0x100000BF4: main (main.cpp:10)
==39753== 
==39753== Conditional jump or move depends on uninitialised value(s)
==39753==    at 0x10017156D: malloc (in /usr/local/Cellar/valgrind/HEAD-1ca0fe2/lib/valgrind/vgpreload_memcheck-amd64-darwin.so)
==39753==    by 0x1010AF377: operator new(unsigned long) (in /usr/lib/libc++abi.dylib)
==39753==    by 0x1001C3609: std::__1::basic_string<char, std::__1::char_traits<char>, std::__1::allocator<char> >::basic_string(std::__1::basic_string<char, std::__1::char_traits<char>, std::__1::allocator<char> > const&) (in /usr/lib/libc++.1.dylib)
==39753==    by 0x100001D83: FileAbstract::FileAbstract(std::__1::basic_string<char, std::__1::char_traits<char>, std::__1::allocator<char> > const&) (FileAbstract.hpp:19)
==39753==    by 0x10000DCF6: File::File(std::__1::basic_string<char, std::__1::char_traits<char>, std::__1::allocator<char> > const&) (File.hpp:14)
==39753==    by 0x10000BE5C: File::File(std::__1::basic_string<char, std::__1::char_traits<char>, std::__1::allocator<char> > const&) (File.hpp:14)
==39753==    by 0x10000DBD5: Link::Link(std::__1::basic_string<char, std::__1::char_traits<char>, std::__1::allocator<char> > const&) (Link.hpp:32)
==39753==    by 0x10000BDFC: Link::Link(std::__1::basic_string<char, std::__1::char_traits<char>, std::__1::allocator<char> > const&) (Link.hpp:14)
==39753==    by 0x10000B7F4: Folder::Scan() (Folder.cpp:55)
==39753==    by 0x10000107B: Window::Window() (Window.hpp:24)
==39753==    by 0x100000FB4: Window::Window() (Window.hpp:21)
==39753==    by 0x100000BF4: main (main.cpp:10)
==39753== 
==39753== Conditional jump or move depends on uninitialised value(s)
==39753==    at 0x1006B9CF0: _platform_memmove$VARIANT$Haswell (in /usr/lib/system/libsystem_platform.dylib)
==39753==    by 0x1001C3629: std::__1::basic_string<char, std::__1::char_traits<char>, std::__1::allocator<char> >::basic_string(std::__1::basic_string<char, std::__1::char_traits<char>, std::__1::allocator<char> > const&) (in /usr/lib/libc++.1.dylib)
==39753==    by 0x100001D83: FileAbstract::FileAbstract(std::__1::basic_string<char, std::__1::char_traits<char>, std::__1::allocator<char> > const&) (FileAbstract.hpp:19)
==39753==    by 0x10000DCF6: File::File(std::__1::basic_string<char, std::__1::char_traits<char>, std::__1::allocator<char> > const&) (File.hpp:14)
==39753==    by 0x10000BE5C: File::File(std::__1::basic_string<char, std::__1::char_traits<char>, std::__1::allocator<char> > const&) (File.hpp:14)
==39753==    by 0x10000DBD5: Link::Link(std::__1::basic_string<char, std::__1::char_traits<char>, std::__1::allocator<char> > const&) (Link.hpp:32)
==39753==    by 0x10000BDFC: Link::Link(std::__1::basic_string<char, std::__1::char_traits<char>, std::__1::allocator<char> > const&) (Link.hpp:14)
==39753==    by 0x10000B7F4: Folder::Scan() (Folder.cpp:55)
==39753==    by 0x10000107B: Window::Window() (Window.hpp:24)
==39753==    by 0x100000FB4: Window::Window() (Window.hpp:21)
==39753==    by 0x100000BF4: main (main.cpp:10)
==39753== 
==39753== Conditional jump or move depends on uninitialised value(s)
==39753==    at 0x1006B9CF6: _platform_memmove$VARIANT$Haswell (in /usr/lib/system/libsystem_platform.dylib)
==39753==    by 0x1001C3629: std::__1::basic_string<char, std::__1::char_traits<char>, std::__1::allocator<char> >::basic_string(std::__1::basic_string<char, std::__1::char_traits<char>, std::__1::allocator<char> > const&) (in /usr/lib/libc++.1.dylib)
==39753==    by 0x100001D83: FileAbstract::FileAbstract(std::__1::basic_string<char, std::__1::char_traits<char>, std::__1::allocator<char> > const&) (FileAbstract.hpp:19)
==39753==    by 0x10000DCF6: File::File(std::__1::basic_string<char, std::__1::char_traits<char>, std::__1::allocator<char> > const&) (File.hpp:14)
==39753==    by 0x10000BE5C: File::File(std::__1::basic_string<char, std::__1::char_traits<char>, std::__1::allocator<char> > const&) (File.hpp:14)
==39753==    by 0x10000DBD5: Link::Link(std::__1::basic_string<char, std::__1::char_traits<char>, std::__1::allocator<char> > const&) (Link.hpp:32)
==39753==    by 0x10000BDFC: Link::Link(std::__1::basic_string<char, std::__1::char_traits<char>, std::__1::allocator<char> > const&) (Link.hpp:14)
==39753==    by 0x10000B7F4: Folder::Scan() (Folder.cpp:55)
==39753==    by 0x10000107B: Window::Window() (Window.hpp:24)
==39753==    by 0x100000FB4: Window::Window() (Window.hpp:21)
==39753==    by 0x100000BF4: main (main.cpp:10)
==39753== 
==39753== Conditional jump or move depends on uninitialised value(s)
==39753==    at 0x1006B9D2B: _platform_memmove$VARIANT$Haswell (in /usr/lib/system/libsystem_platform.dylib)
==39753==    by 0x1001C3629: std::__1::basic_string<char, std::__1::char_traits<char>, std::__1::allocator<char> >::basic_string(std::__1::basic_string<char, std::__1::char_traits<char>, std::__1::allocator<char> > const&) (in /usr/lib/libc++.1.dylib)
==39753==    by 0x100001D83: FileAbstract::FileAbstract(std::__1::basic_string<char, std::__1::char_traits<char>, std::__1::allocator<char> > const&) (FileAbstract.hpp:19)
==39753==    by 0x10000DCF6: File::File(std::__1::basic_string<char, std::__1::char_traits<char>, std::__1::allocator<char> > const&) (File.hpp:14)
==39753==    by 0x10000BE5C: File::File(std::__1::basic_string<char, std::__1::char_traits<char>, std::__1::allocator<char> > const&) (File.hpp:14)
==39753==    by 0x10000DBD5: Link::Link(std::__1::basic_string<char, std::__1::char_traits<char>, std::__1::allocator<char> > const&) (Link.hpp:32)
==39753==    by 0x10000BDFC: Link::Link(std::__1::basic_string<char, std::__1::char_traits<char>, std::__1::allocator<char> > const&) (Link.hpp:14)
==39753==    by 0x10000B7F4: Folder::Scan() (Folder.cpp:55)
==39753==    by 0x10000107B: Window::Window() (Window.hpp:24)
==39753==    by 0x100000FB4: Window::Window() (Window.hpp:21)
==39753==    by 0x100000BF4: main (main.cpp:10)
==39753== 
==39753== Use of uninitialised value of size 8
==39753==    at 0x1006B9D2D: _platform_memmove$VARIANT$Haswell (in /usr/lib/system/libsystem_platform.dylib)
==39753==    by 0x1001C3629: std::__1::basic_string<char, std::__1::char_traits<char>, std::__1::allocator<char> >::basic_string(std::__1::basic_string<char, std::__1::char_traits<char>, std::__1::allocator<char> > const&) (in /usr/lib/libc++.1.dylib)
==39753==    by 0x100001D83: FileAbstract::FileAbstract(std::__1::basic_string<char, std::__1::char_traits<char>, std::__1::allocator<char> > const&) (FileAbstract.hpp:19)
==39753==    by 0x10000DCF6: File::File(std::__1::basic_string<char, std::__1::char_traits<char>, std::__1::allocator<char> > const&) (File.hpp:14)
==39753==    by 0x10000BE5C: File::File(std::__1::basic_string<char, std::__1::char_traits<char>, std::__1::allocator<char> > const&) (File.hpp:14)
==39753==    by 0x10000DBD5: Link::Link(std::__1::basic_string<char, std::__1::char_traits<char>, std::__1::allocator<char> > const&) (Link.hpp:32)
==39753==    by 0x10000BDFC: Link::Link(std::__1::basic_string<char, std::__1::char_traits<char>, std::__1::allocator<char> > const&) (Link.hpp:14)
==39753==    by 0x10000B7F4: Folder::Scan() (Folder.cpp:55)
==39753==    by 0x10000107B: Window::Window() (Window.hpp:24)
==39753==    by 0x100000FB4: Window::Window() (Window.hpp:21)
==39753==    by 0x100000BF4: main (main.cpp:10)
==39753== 
==39753== Conditional jump or move depends on uninitialised value(s)
==39753==    at 0x1006B9D37: _platform_memmove$VARIANT$Haswell (in /usr/lib/system/libsystem_platform.dylib)
==39753==    by 0x1001C3629: std::__1::basic_string<char, std::__1::char_traits<char>, std::__1::allocator<char> >::basic_string(std::__1::basic_string<char, std::__1::char_traits<char>, std::__1::allocator<char> > const&) (in /usr/lib/libc++.1.dylib)
==39753==    by 0x100001D83: FileAbstract::FileAbstract(std::__1::basic_string<char, std::__1::char_traits<char>, std::__1::allocator<char> > const&) (FileAbstract.hpp:19)
==39753==    by 0x10000DCF6: File::File(std::__1::basic_string<char, std::__1::char_traits<char>, std::__1::allocator<char> > const&) (File.hpp:14)
==39753==    by 0x10000BE5C: File::File(std::__1::basic_string<char, std::__1::char_traits<char>, std::__1::allocator<char> > const&) (File.hpp:14)
==39753==    by 0x10000DBD5: Link::Link(std::__1::basic_string<char, std::__1::char_traits<char>, std::__1::allocator<char> > const&) (Link.hpp:32)
==39753==    by 0x10000BDFC: Link::Link(std::__1::basic_string<char, std::__1::char_traits<char>, std::__1::allocator<char> > const&) (Link.hpp:14)
==39753==    by 0x10000B7F4: Folder::Scan() (Folder.cpp:55)
==39753==    by 0x10000107B: Window::Window() (Window.hpp:24)
==39753==    by 0x100000FB4: Window::Window() (Window.hpp:21)
==39753==    by 0x100000BF4: main (main.cpp:10)
==39753== 
==39753== Conditional jump or move depends on uninitialised value(s)
==39753==    at 0x1006B9D4D: _platform_memmove$VARIANT$Haswell (in /usr/lib/system/libsystem_platform.dylib)
==39753==    by 0x1001C3629: std::__1::basic_string<char, std::__1::char_traits<char>, std::__1::allocator<char> >::basic_string(std::__1::basic_string<char, std::__1::char_traits<char>, std::__1::allocator<char> > const&) (in /usr/lib/libc++.1.dylib)
==39753==    by 0x100001D83: FileAbstract::FileAbstract(std::__1::basic_string<char, std::__1::char_traits<char>, std::__1::allocator<char> > const&) (FileAbstract.hpp:19)
==39753==    by 0x10000DCF6: File::File(std::__1::basic_string<char, std::__1::char_traits<char>, std::__1::allocator<char> > const&) (File.hpp:14)
==39753==    by 0x10000BE5C: File::File(std::__1::basic_string<char, std::__1::char_traits<char>, std::__1::allocator<char> > const&) (File.hpp:14)
==39753==    by 0x10000DBD5: Link::Link(std::__1::basic_string<char, std::__1::char_traits<char>, std::__1::allocator<char> > const&) (Link.hpp:32)
==39753==    by 0x10000BDFC: Link::Link(std::__1::basic_string<char, std::__1::char_traits<char>, std::__1::allocator<char> > const&) (Link.hpp:14)
==39753==    by 0x10000B7F4: Folder::Scan() (Folder.cpp:55)
==39753==    by 0x10000107B: Window::Window() (Window.hpp:24)
==39753==    by 0x100000FB4: Window::Window() (Window.hpp:21)
==39753==    by 0x100000BF4: main (main.cpp:10)
==39753== 
==39753== Conditional jump or move depends on uninitialised value(s)
==39753==    at 0x1006B9D67: _platform_memmove$VARIANT$Haswell (in /usr/lib/system/libsystem_platform.dylib)
==39753==    by 0x1001C3629: std::__1::basic_string<char, std::__1::char_traits<char>, std::__1::allocator<char> >::basic_string(std::__1::basic_string<char, std::__1::char_traits<char>, std::__1::allocator<char> > const&) (in /usr/lib/libc++.1.dylib)
==39753==    by 0x100001D83: FileAbstract::FileAbstract(std::__1::basic_string<char, std::__1::char_traits<char>, std::__1::allocator<char> > const&) (FileAbstract.hpp:19)
==39753==    by 0x10000DCF6: File::File(std::__1::basic_string<char, std::__1::char_traits<char>, std::__1::allocator<char> > const&) (File.hpp:14)
==39753==    by 0x10000BE5C: File::File(std::__1::basic_string<char, std::__1::char_traits<char>, std::__1::allocator<char> > const&) (File.hpp:14)
==39753==    by 0x10000DBD5: Link::Link(std::__1::basic_string<char, std::__1::char_traits<char>, std::__1::allocator<char> > const&) (Link.hpp:32)
==39753==    by 0x10000BDFC: Link::Link(std::__1::basic_string<char, std::__1::char_traits<char>, std::__1::allocator<char> > const&) (Link.hpp:14)
==39753==    by 0x10000B7F4: Folder::Scan() (Folder.cpp:55)
==39753==    by 0x10000107B: Window::Window() (Window.hpp:24)
==39753==    by 0x100000FB4: Window::Window() (Window.hpp:21)
==39753==    by 0x100000BF4: main (main.cpp:10)
==39753== 
==39753== Use of uninitialised value of size 8
==39753==    at 0x1006B9D75: _platform_memmove$VARIANT$Haswell (in /usr/lib/system/libsystem_platform.dylib)
==39753==    by 0x1001C3629: std::__1::basic_string<char, std::__1::char_traits<char>, std::__1::allocator<char> >::basic_string(std::__1::basic_string<char, std::__1::char_traits<char>, std::__1::allocator<char> > const&) (in /usr/lib/libc++.1.dylib)
==39753==    by 0x100001D83: FileAbstract::FileAbstract(std::__1::basic_string<char, std::__1::char_traits<char>, std::__1::allocator<char> > const&) (FileAbstract.hpp:19)
==39753==    by 0x10000DCF6: File::File(std::__1::basic_string<char, std::__1::char_traits<char>, std::__1::allocator<char> > const&) (File.hpp:14)
==39753==    by 0x10000BE5C: File::File(std::__1::basic_string<char, std::__1::char_traits<char>, std::__1::allocator<char> > const&) (File.hpp:14)
==39753==    by 0x10000DBD5: Link::Link(std::__1::basic_string<char, std::__1::char_traits<char>, std::__1::allocator<char> > const&) (Link.hpp:32)
==39753==    by 0x10000BDFC: Link::Link(std::__1::basic_string<char, std::__1::char_traits<char>, std::__1::allocator<char> > const&) (Link.hpp:14)
==39753==    by 0x10000B7F4: Folder::Scan() (Folder.cpp:55)
==39753==    by 0x10000107B: Window::Window() (Window.hpp:24)
==39753==    by 0x100000FB4: Window::Window() (Window.hpp:21)
==39753==    by 0x100000BF4: main (main.cpp:10)
==39753== 
==39753== Use of uninitialised value of size 8
==39753==    at 0x1001C362A: std::__1::basic_string<char, std::__1::char_traits<char>, std::__1::allocator<char> >::basic_string(std::__1::basic_string<char, std::__1::char_traits<char>, std::__1::allocator<char> > const&) (in /usr/lib/libc++.1.dylib)
==39753==    by 0x100001D83: FileAbstract::FileAbstract(std::__1::basic_string<char, std::__1::char_traits<char>, std::__1::allocator<char> > const&) (FileAbstract.hpp:19)
==39753==    by 0x10000DCF6: File::File(std::__1::basic_string<char, std::__1::char_traits<char>, std::__1::allocator<char> > const&) (File.hpp:14)
==39753==    by 0x10000BE5C: File::File(std::__1::basic_string<char, std::__1::char_traits<char>, std::__1::allocator<char> > const&) (File.hpp:14)
==39753==    by 0x10000DBD5: Link::Link(std::__1::basic_string<char, std::__1::char_traits<char>, std::__1::allocator<char> > const&) (Link.hpp:32)
==39753==    by 0x10000BDFC: Link::Link(std::__1::basic_string<char, std::__1::char_traits<char>, std::__1::allocator<char> > const&) (Link.hpp:14)
==39753==    by 0x10000B7F4: Folder::Scan() (Folder.cpp:55)
==39753==    by 0x10000107B: Window::Window() (Window.hpp:24)
==39753==    by 0x100000FB4: Window::Window() (Window.hpp:21)
==39753==    by 0x100000BF4: main (main.cpp:10)
==39753== 
==39753== Invalid read of size 8
==39753==    at 0x100007C46: std::__1::default_delete<File>::operator()(File*) const (memory:2335)
==39753==    by 0x1000078DF: std::__1::__shared_ptr_pointer<File*, std::__1::default_delete<File>, std::__1::allocator<File> >::__on_zero_shared() (memory:3636)
==39753==    by 0x1000022D9: std::__1::__shared_count::__release_shared() (memory:3540)
==39753==    by 0x10000227E: std::__1::__shared_weak_count::__release_shared() (memory:3582)
==39753==    by 0x10000224B: std::__1::shared_ptr<FileAbstract>::~shared_ptr() (memory:4518)
==39753==    by 0x100002214: std::__1::shared_ptr<FileAbstract>::~shared_ptr() (memory:4516)
==39753==    by 0x1000145D8: std::__1::shared_ptr<FileAbstract>::operator=(std::__1::shared_ptr<FileAbstract> const&) (memory:4526)
==39753==    by 0x10001454E: std::__1::shared_ptr<FileAbstract>* std::__1::__copy<std::__1::shared_ptr<FileAbstract>*, std::__1::shared_ptr<FileAbstract>*>(std::__1::shared_ptr<FileAbstract>*, std::__1::shared_ptr<FileAbstract>*, std::__1::shared_ptr<FileAbstract>*) (algorithm:1744)
==39753==    by 0x100014456: std::__1::shared_ptr<FileAbstract>* std::__1::copy<std::__1::shared_ptr<FileAbstract>*, std::__1::shared_ptr<FileAbstract>*>(std::__1::shared_ptr<FileAbstract>*, std::__1::shared_ptr<FileAbstract>*, std::__1::shared_ptr<FileAbstract>*) (algorithm:1769)
==39753==    by 0x1000142E9: _ZNSt3__16vectorINS_10shared_ptrI12FileAbstractEENS_9allocatorIS3_EEE6assignIPS3_EENS_9enable_ifIXaasr21__is_forward_iteratorIT_EE5valuesr16is_constructibleIS3_NS_15iterator_traitsISA_E9referenceEEE5valueEvE4typeESA_SA_ (vector:1438)
==39753==    by 0x10000BEBC: std::__1::vector<std::__1::shared_ptr<FileAbstract>, std::__1::allocator<std::__1::shared_ptr<FileAbstract> > >::operator=(std::__1::vector<std::__1::shared_ptr<FileAbstract>, std::__1::allocator<std::__1::shared_ptr<FileAbstract> > > const&) (vector:1392)
==39753==    by 0x10000BB2F: Folder::Scan() (Folder.cpp:72)
==39753==  Address 0x10113f6b0 is 0 bytes inside a block of size 40 free'd
==39753==    at 0x1001719AB: free (in /usr/local/Cellar/valgrind/HEAD-1ca0fe2/lib/valgrind/vgpreload_memcheck-amd64-darwin.so)
==39753==    by 0x1000038E1: File::~File() (File.hpp:12)
==39753==    by 0x10001579E: std::__1::default_delete<FileAbstract>::operator()(FileAbstract*) const (memory:2335)
==39753==    by 0x10001545F: std::__1::__shared_ptr_pointer<FileAbstract*, std::__1::default_delete<FileAbstract>, std::__1::allocator<FileAbstract> >::__on_zero_shared() (memory:3636)
==39753==    by 0x1000022D9: std::__1::__shared_count::__release_shared() (memory:3540)
==39753==    by 0x10000227E: std::__1::__shared_weak_count::__release_shared() (memory:3582)
==39753==    by 0x10000224B: std::__1::shared_ptr<FileAbstract>::~shared_ptr() (memory:4518)
==39753==    by 0x100002214: std::__1::shared_ptr<FileAbstract>::~shared_ptr() (memory:4516)
==39753==    by 0x1000021F8: std::__1::allocator<std::__1::shared_ptr<FileAbstract> >::destroy(std::__1::shared_ptr<FileAbstract>*) (memory:1880)
==39753==    by 0x1000021CC: void std::__1::allocator_traits<std::__1::allocator<std::__1::shared_ptr<FileAbstract> > >::__destroy<std::__1::shared_ptr<FileAbstract> >(std::__1::integral_constant<bool, true>, std::__1::allocator<std::__1::shared_ptr<FileAbstract> >&, std::__1::shared_ptr<FileAbstract>*) (memory:1742)
==39753==    by 0x10000218C: void std::__1::allocator_traits<std::__1::allocator<std::__1::shared_ptr<FileAbstract> > >::destroy<std::__1::shared_ptr<FileAbstract> >(std::__1::allocator<std::__1::shared_ptr<FileAbstract> >&, std::__1::shared_ptr<FileAbstract>*) (memory:1595)
==39753==    by 0x100002835: std::__1::__deque_base<std::__1::shared_ptr<FileAbstract>, std::__1::allocator<std::__1::shared_ptr<FileAbstract> > >::clear() (deque:1174)
==39753==  Block was alloc'd at
==39753==    at 0x1001715C6: malloc (in /usr/local/Cellar/valgrind/HEAD-1ca0fe2/lib/valgrind/vgpreload_memcheck-amd64-darwin.so)
==39753==    by 0x1010AF377: operator new(unsigned long) (in /usr/lib/libc++abi.dylib)
==39753==    by 0x10000B918: Folder::Scan() (Folder.cpp:60)
==39753==    by 0x10000BF28: Folder::CollectAll() (Folder.cpp:77)
==39753==    by 0x10000C57B: Folder::Copy(buffer::CopyBuffer*) (Folder.cpp:90)
==39753==    by 0x10001D82D: Window::Copy() (Window.cpp:55)
==39753==    by 0x100017354: Logic::Event_Copy(Window&) (Logic.cpp:86)
==39753==    by 0x100000ECE: main (main.cpp:41)
==39753== 
==39753== valgrind: Unrecognised instruction at address 0x1000200a8.
==39753==    at 0x1000200A8: FileAbstract::~FileAbstract() (FileAbstract.hpp:21)
==39753==    by 0x100007C4E: std::__1::default_delete<File>::operator()(File*) const (memory:2335)
==39753==    by 0x1000078DF: std::__1::__shared_ptr_pointer<File*, std::__1::default_delete<File>, std::__1::allocator<File> >::__on_zero_shared() (memory:3636)
==39753==    by 0x1000022D9: std::__1::__shared_count::__release_shared() (memory:3540)
==39753==    by 0x10000227E: std::__1::__shared_weak_count::__release_shared() (memory:3582)
==39753==    by 0x10000224B: std::__1::shared_ptr<FileAbstract>::~shared_ptr() (memory:4518)
==39753==    by 0x100002214: std::__1::shared_ptr<FileAbstract>::~shared_ptr() (memory:4516)
==39753==    by 0x1000145D8: std::__1::shared_ptr<FileAbstract>::operator=(std::__1::shared_ptr<FileAbstract> const&) (memory:4526)
==39753==    by 0x10001454E: std::__1::shared_ptr<FileAbstract>* std::__1::__copy<std::__1::shared_ptr<FileAbstract>*, std::__1::shared_ptr<FileAbstract>*>(std::__1::shared_ptr<FileAbstract>*, std::__1::shared_ptr<FileAbstract>*, std::__1::shared_ptr<FileAbstract>*) (algorithm:1744)
==39753==    by 0x100014456: std::__1::shared_ptr<FileAbstract>* std::__1::copy<std::__1::shared_ptr<FileAbstract>*, std::__1::shared_ptr<FileAbstract>*>(std::__1::shared_ptr<FileAbstract>*, std::__1::shared_ptr<FileAbstract>*, std::__1::shared_ptr<FileAbstract>*) (algorithm:1769)
==39753==    by 0x1000142E9: _ZNSt3__16vectorINS_10shared_ptrI12FileAbstractEENS_9allocatorIS3_EEE6assignIPS3_EENS_9enable_ifIXaasr21__is_forward_iteratorIT_EE5valuesr16is_constructibleIS3_NS_15iterator_traitsISA_E9referenceEEE5valueEvE4typeESA_SA_ (vector:1438)
==39753==    by 0x10000BEBC: std::__1::vector<std::__1::shared_ptr<FileAbstract>, std::__1::allocator<std::__1::shared_ptr<FileAbstract> > >::operator=(std::__1::vector<std::__1::shared_ptr<FileAbstract>, std::__1::allocator<std::__1::shared_ptr<FileAbstract> > > const&) (vector:1392)
==39753== Your program just tried to execute an instruction that Valgrind
==39753== did not recognise.  There are two possible reasons for this.
==39753== 1. Your program has a bug and erroneously jumped to a non-code
==39753==    location.  If you are running Memcheck and you just saw a
==39753==    warning about a bad jump, it's probably your program's fault.
==39753== 2. The instruction is legitimate but Valgrind doesn't handle it,
==39753==    i.e. it's Valgrind's fault.  If you think this is the case or
==39753==    you are not sure, please let us know and we'll try to fix it.
==39753== Either way, Valgrind will now raise a SIGILL signal which will
==39753== probably kill your program.
==39753== 
==39753== Process terminating with default action of signal 4 (SIGILL)
==39753==  Illegal opcode at address 0x1000200A8
==39753==    at 0x1000200A8: FileAbstract::~FileAbstract() (FileAbstract.hpp:21)
==39753==    by 0x100007C4E: std::__1::default_delete<File>::operator()(File*) const (memory:2335)
==39753==    by 0x1000078DF: std::__1::__shared_ptr_pointer<File*, std::__1::default_delete<File>, std::__1::allocator<File> >::__on_zero_shared() (memory:3636)
==39753==    by 0x1000022D9: std::__1::__shared_count::__release_shared() (memory:3540)
==39753==    by 0x10000227E: std::__1::__shared_weak_count::__release_shared() (memory:3582)
==39753==    by 0x10000224B: std::__1::shared_ptr<FileAbstract>::~shared_ptr() (memory:4518)
==39753==    by 0x100002214: std::__1::shared_ptr<FileAbstract>::~shared_ptr() (memory:4516)
==39753==    by 0x1000145D8: std::__1::shared_ptr<FileAbstract>::operator=(std::__1::shared_ptr<FileAbstract> const&) (memory:4526)
==39753==    by 0x10001454E: std::__1::shared_ptr<FileAbstract>* std::__1::__copy<std::__1::shared_ptr<FileAbstract>*, std::__1::shared_ptr<FileAbstract>*>(std::__1::shared_ptr<FileAbstract>*, std::__1::shared_ptr<FileAbstract>*, std::__1::shared_ptr<FileAbstract>*) (algorithm:1744)
==39753==    by 0x100014456: std::__1::shared_ptr<FileAbstract>* std::__1::copy<std::__1::shared_ptr<FileAbstract>*, std::__1::shared_ptr<FileAbstract>*>(std::__1::shared_ptr<FileAbstract>*, std::__1::shared_ptr<FileAbstract>*, std::__1::shared_ptr<FileAbstract>*) (algorithm:1769)
==39753==    by 0x1000142E9: _ZNSt3__16vectorINS_10shared_ptrI12FileAbstractEENS_9allocatorIS3_EEE6assignIPS3_EENS_9enable_ifIXaasr21__is_forward_iteratorIT_EE5valuesr16is_constructibleIS3_NS_15iterator_traitsISA_E9referenceEEE5valueEvE4typeESA_SA_ (vector:1438)
==39753==    by 0x10000BEBC: std::__1::vector<std::__1::shared_ptr<FileAbstract>, std::__1::allocator<std::__1::shared_ptr<FileAbstract> > >::operator=(std::__1::vector<std::__1::shared_ptr<FileAbstract>, std::__1::allocator<std::__1::shared_ptr<FileAbstract> > > const&) (vector:1392)
==39753== 
==39753== HEAP SUMMARY:
==39753==     in use at exit: 326,235 bytes in 680 blocks
==39753==   total heap usage: 979 allocs, 299 frees, 369,881 bytes allocated
==39753== 
==39753== 24 bytes in 1 blocks are possibly lost in loss record 11 of 98
==39753==    at 0x100171DF5: malloc_zone_calloc (in /usr/local/Cellar/valgrind/HEAD-1ca0fe2/lib/valgrind/vgpreload_memcheck-amd64-darwin.so)
==39753==    by 0x100774DE3: freeBuckets(NXHashTable*, int) (in /usr/lib/libobjc.A.dylib)
==39753==    by 0x100774EC7: remapClass(objc_class*) (in /usr/lib/libobjc.A.dylib)
==39753==    by 0x100774E1E: TimeLogger::log(char const*) (in /usr/lib/libobjc.A.dylib)
==39753==    by 0x100774AFE: NXHashInsert (in /usr/lib/libobjc.A.dylib)
==39753==    by 0x1007749BF: hashPrototype(void const*, void const*) (in /usr/lib/libobjc.A.dylib)
==39753==    by 0x10077489C: NXCreateHashTableFromZone (in /usr/lib/libobjc.A.dylib)
==39753==    by 0x100774846: NXCreateHashTableFromZone (in /usr/lib/libobjc.A.dylib)
==39753==    by 0x100790646: std::__1::__hash_table<std::__1::__hash_value_type<unsigned long, objc_references_support::ObjectAssociationMap*>, std::__1::__unordered_map_hasher<unsigned long, std::__1::__hash_value_type<unsigned long, objc_references_support::ObjectAssociationMap*>, objc_references_support::DisguisedPointerHash, true>, std::__1::__unordered_map_equal<unsigned long, std::__1::__hash_value_type<unsigned long, objc_references_support::ObjectAssociationMap*>, objc_references_support::DisguisedPointerEqual, true>, objc_references_support::ObjcAllocator<std::__1::__hash_value_type<unsigned long, objc_references_support::ObjectAssociationMap*> > >::__rehash(unsigned long) (in /usr/lib/libobjc.A.dylib)
==39753==    by 0x1007730F8: objc_opt::objc_stringhash_t::getIndex(char const*) const (in /usr/lib/libobjc.A.dylib)
==39753==    by 0x10077293B: objc_image_info* getDataSection<objc_image_info>(mach_header_64 const*, char const*, unsigned long*, unsigned long*) (in /usr/lib/libobjc.A.dylib)
==39753==    by 0x10078555F: __objc_personality_v0 (in /usr/lib/libobjc.A.dylib)
==39753== 
==39753== 24 bytes in 1 blocks are possibly lost in loss record 12 of 98
==39753==    at 0x100171DF5: malloc_zone_calloc (in /usr/local/Cellar/valgrind/HEAD-1ca0fe2/lib/valgrind/vgpreload_memcheck-amd64-darwin.so)
==39753==    by 0x100774DE3: freeBuckets(NXHashTable*, int) (in /usr/lib/libobjc.A.dylib)
==39753==    by 0x100774EC7: remapClass(objc_class*) (in /usr/lib/libobjc.A.dylib)
==39753==    by 0x100774E1E: TimeLogger::log(char const*) (in /usr/lib/libobjc.A.dylib)
==39753==    by 0x100774921: NXHashGet (in /usr/lib/libobjc.A.dylib)
==39753==    by 0x100774846: NXCreateHashTableFromZone (in /usr/lib/libobjc.A.dylib)
==39753==    by 0x100776417: NXMapRemove (in /usr/lib/libobjc.A.dylib)
==39753==    by 0x10078A067: _unload_image (in /usr/lib/libobjc.A.dylib)
==39753==    by 0x100789A8C: _objc_flush_caches (in /usr/lib/libobjc.A.dylib)
==39753==    by 0x100789A6B: _objc_flush_caches (in /usr/lib/libobjc.A.dylib)
==39753==    by 0x100789A6B: _objc_flush_caches (in /usr/lib/libobjc.A.dylib)
==39753==    by 0x100789A6B: _objc_flush_caches (in /usr/lib/libobjc.A.dylib)
==39753== 
==39753== 48 bytes in 2 blocks are possibly lost in loss record 32 of 98
==39753==    at 0x100171C32: calloc (in /usr/local/Cellar/valgrind/HEAD-1ca0fe2/lib/valgrind/vgpreload_memcheck-amd64-darwin.so)
==39753==    by 0x100772742: map_images_nolock (in /usr/lib/libobjc.A.dylib)
==39753==    by 0x10078555F: __objc_personality_v0 (in /usr/lib/libobjc.A.dylib)
==39753==    by 0x1000A047A: dyld::notifyBatchPartial(dyld_image_states, bool, char const* (*)(dyld_image_states, unsigned int, dyld_image_info const*), bool, bool) (in /usr/lib/dyld)
==39753==    by 0x1000A062D: dyld::registerObjCNotifiers(void (*)(unsigned int, char const* const*, mach_header const* const*), void (*)(char const*, mach_header const*), void (*)(char const*, mach_header const*)) (in /usr/lib/dyld)
==39753==    by 0x1003CDA26: _dyld_objc_notify_register (in /usr/lib/system/libdyld.dylib)
==39753==    by 0x100772233: environ_init (in /usr/lib/libobjc.A.dylib)
==39753==    by 0x100364E35: _os_object_init (in /usr/lib/system/libdispatch.dylib)
==39753==    by 0x100370AD1: libdispatch_init (in /usr/lib/system/libdispatch.dylib)
==39753==    by 0x1002749C4: libSystem_initializer (in /usr/lib/libSystem.B.dylib)
==39753==    by 0x1000B3591: ImageLoaderMachO::doModInitFunctions(ImageLoader::LinkContext const&) (in /usr/lib/dyld)
==39753==    by 0x1000B3797: ImageLoaderMachO::doInitialization(ImageLoader::LinkContext const&) (in /usr/lib/dyld)
==39753== 
==39753== LEAK SUMMARY:
==39753==    definitely lost: 0 bytes in 0 blocks
==39753==    indirectly lost: 0 bytes in 0 blocks
==39753==      possibly lost: 96 bytes in 4 blocks
==39753==    still reachable: 307,240 bytes in 520 blocks
==39753==         suppressed: 18,899 bytes in 156 blocks
==39753== Reachable blocks (those to which a pointer was found) are not shown.
==39753== To see them, rerun with: --leak-check=full --show-leak-kinds=all
==39753== 
==39753== For counts of detected and suppressed errors, rerun with: -v
==39753== Use --track-origins=yes to see where uninitialised values come from
==39753== ERROR SUMMARY: 458 errors from 57 contexts (suppressed: 8 from 8)
